%YAML 1.1
%TAG !u! tag:unity3d.com,2011:
--- !u!114 &-8023505902820117270
MonoBehaviour:
  m_ObjectHideFlags: 3
  m_CorrespondingSourceObject: {fileID: 0}
  m_PrefabInstance: {fileID: 0}
  m_PrefabAsset: {fileID: 0}
  m_GameObject: {fileID: 0}
  m_Enabled: 1
  m_EditorHideFlags: 0
  m_Script: {fileID: 11500000, guid: 59b6606ef2548734bb6d11b9d160bc7e, type: 3}
  m_Name: HDRISky
  m_EditorClassIdentifier: 
  active: 0
  rotation:
    m_OverrideState: 0
    m_Value: 0
  skyIntensityMode:
    m_OverrideState: 0
    m_Value: 0
  exposure:
    m_OverrideState: 0
    m_Value: 0
  multiplier:
    m_OverrideState: 0
    m_Value: 1
  upperHemisphereLuxValue:
    m_OverrideState: 1
    m_Value: 1.1909487
  upperHemisphereLuxColor:
    m_OverrideState: 1
    m_Value: {x: 0.06766748, y: 0.26851052, z: 0.5}
  desiredLuxValue:
    m_OverrideState: 0
    m_Value: 20000
  updateMode:
    m_OverrideState: 0
    m_Value: 0
  updatePeriod:
    m_OverrideState: 0
    m_Value: 0
  includeSunInBaking:
    m_OverrideState: 0
    m_Value: 0
  hdriSky:
    m_OverrideState: 1
    m_Value: {fileID: 8900000, guid: 3b9c8413bb7d59b4dbd832a9122271cb, type: 3}
  distortionMode:
    m_OverrideState: 0
    m_Value: 0
  flowmap:
    m_OverrideState: 0
    m_Value: {fileID: 0}
  upperHemisphereOnly:
    m_OverrideState: 0
    m_Value: 1
  scrollOrientation:
    m_OverrideState: 0
    m_Value:
      mode: 1
      customValue: 0
      additiveValue: 0
      multiplyValue: 1
  scrollSpeed:
    m_OverrideState: 0
    m_Value:
      mode: 1
      customValue: 100
      additiveValue: 0
      multiplyValue: 1
  enableBackplate:
    m_OverrideState: 0
    m_Value: 0
  backplateType:
    m_OverrideState: 0
    m_Value: 0
  groundLevel:
    m_OverrideState: 0
    m_Value: 0
  scale:
    m_OverrideState: 0
    m_Value: {x: 32, y: 32}
  projectionDistance:
    m_OverrideState: 0
    m_Value: 16
  plateRotation:
    m_OverrideState: 0
    m_Value: 0
  plateTexRotation:
    m_OverrideState: 0
    m_Value: 0
  plateTexOffset:
    m_OverrideState: 0
    m_Value: {x: 0, y: 0}
  blendAmount:
    m_OverrideState: 0
    m_Value: 0
  shadowTint:
    m_OverrideState: 0
    m_Value: {r: 0.5, g: 0.5, b: 0.5, a: 1}
  pointLightShadow:
    m_OverrideState: 0
    m_Value: 0
  dirLightShadow:
    m_OverrideState: 0
    m_Value: 0
  rectLightShadow:
    m_OverrideState: 0
    m_Value: 0
  m_SkyVersion: 1
  enableDistortion:
    m_OverrideState: 0
    m_Value: 0
  procedural:
    m_OverrideState: 0
    m_Value: 1
  scrollDirection:
    m_OverrideState: 0
    m_Value: 0
  m_ObsoleteScrollSpeed:
    m_OverrideState: 0
    m_Value: 1
--- !u!114 &-7887247051497499587
MonoBehaviour:
  m_ObjectHideFlags: 3
  m_CorrespondingSourceObject: {fileID: 0}
  m_PrefabInstance: {fileID: 0}
  m_PrefabAsset: {fileID: 0}
  m_GameObject: {fileID: 0}
  m_Enabled: 1
  m_EditorHideFlags: 0
  m_Script: {fileID: 11500000, guid: 7ddcec8a8eb2d684d833ac8f5d26aebd, type: 3}
  m_Name: HDShadowSettings
  m_EditorClassIdentifier: 
  active: 1
  interCascadeBorders: 1
  maxShadowDistance:
    m_OverrideState: 1
    m_Value: 300
  directionalTransmissionMultiplier:
    m_OverrideState: 0
    m_Value: 1
  cascadeShadowSplitCount:
    m_OverrideState: 0
    m_Value: 4
  cascadeShadowSplit0:
    m_OverrideState: 0
    m_Value: 0.05
  cascadeShadowSplit1:
    m_OverrideState: 0
    m_Value: 0.15
  cascadeShadowSplit2:
    m_OverrideState: 0
    m_Value: 0.3
  cascadeShadowBorder0:
    m_OverrideState: 0
    m_Value: 0
  cascadeShadowBorder1:
    m_OverrideState: 0
    m_Value: 0
  cascadeShadowBorder2:
    m_OverrideState: 0
    m_Value: 0
  cascadeShadowBorder3:
    m_OverrideState: 0
    m_Value: 0
--- !u!114 &-6925526883324816133
MonoBehaviour:
  m_ObjectHideFlags: 3
  m_CorrespondingSourceObject: {fileID: 0}
  m_PrefabInstance: {fileID: 0}
  m_PrefabAsset: {fileID: 0}
  m_GameObject: {fileID: 0}
  m_Enabled: 1
  m_EditorHideFlags: 0
  m_Script: {fileID: 11500000, guid: 0d7593b3a9277ac4696b20006c21dde2, type: 3}
  m_Name: VisualEnvironment
  m_EditorClassIdentifier: 
  active: 1
  skyType:
    m_OverrideState: 1
    m_Value: 4
  cloudType:
    m_OverrideState: 0
    m_Value: 1
  skyAmbientMode:
    m_OverrideState: 1
    m_Value: 1
  windOrientation:
    m_OverrideState: 0
    m_Value: 0
  windSpeed:
    m_OverrideState: 1
    m_Value: 0
  fogType:
    m_OverrideState: 0
    m_Value: 0
--- !u!114 &-5051271865952391873
MonoBehaviour:
  m_ObjectHideFlags: 3
  m_CorrespondingSourceObject: {fileID: 0}
  m_PrefabInstance: {fileID: 0}
  m_PrefabAsset: {fileID: 0}
  m_GameObject: {fileID: 0}
  m_Enabled: 1
  m_EditorHideFlags: 0
  m_Script: {fileID: 11500000, guid: f034cba68ab55e046ae1445a42f18c0e, type: 3}
  m_Name: IndirectLightingController
  m_EditorClassIdentifier: 
  active: 0
  indirectDiffuseLightingMultiplier:
    m_OverrideState: 1
    m_Value: 1.69
  indirectDiffuseLightingLayers:
    m_OverrideState: 0
    m_Value: 255
  reflectionLightingMultiplier:
    m_OverrideState: 0
    m_Value: 1
  reflectionLightingLayers:
    m_OverrideState: 0
    m_Value: 255
  reflectionProbeIntensityMultiplier:
    m_OverrideState: 0
    m_Value: 1
--- !u!114 &-2760549565193467533
MonoBehaviour:
  m_ObjectHideFlags: 3
  m_CorrespondingSourceObject: {fileID: 0}
  m_PrefabInstance: {fileID: 0}
  m_PrefabAsset: {fileID: 0}
  m_GameObject: {fileID: 0}
  m_Enabled: 1
  m_EditorHideFlags: 0
  m_Script: {fileID: 11500000, guid: d877ec3e844f2ca46830012e8e79319b, type: 3}
  m_Name: PhysicallyBasedSky
  m_EditorClassIdentifier: 
  active: 1
  rotation:
    m_OverrideState: 0
    m_Value: 0
  skyIntensityMode:
    m_OverrideState: 0
    m_Value: 0
  exposure:
    m_OverrideState: 0
    m_Value: 0
  multiplier:
    m_OverrideState: 0
    m_Value: 1
  upperHemisphereLuxValue:
    m_OverrideState: 0
    m_Value: 1
  upperHemisphereLuxColor:
    m_OverrideState: 0
    m_Value: {x: 0, y: 0, z: 0}
  desiredLuxValue:
    m_OverrideState: 0
    m_Value: 20000
  updateMode:
    m_OverrideState: 0
    m_Value: 0
  updatePeriod:
    m_OverrideState: 0
    m_Value: 0
  includeSunInBaking:
    m_OverrideState: 0
    m_Value: 0
  type:
    m_OverrideState: 0
    m_Value: 1
  sphericalMode:
    m_OverrideState: 0
    m_Value: 1
  seaLevel:
    m_OverrideState: 0
    m_Value: 0
  planetaryRadius:
    m_OverrideState: 0
    m_Value: 6378100
  planetCenterPosition:
    m_OverrideState: 0
    m_Value: {x: 0, y: -6378100, z: 0}
  airDensityR:
    m_OverrideState: 0
    m_Value: 0.04534
  airDensityG:
    m_OverrideState: 0
    m_Value: 0.10237241
  airDensityB:
    m_OverrideState: 0
    m_Value: 0.23264056
  airTint:
    m_OverrideState: 0
    m_Value: {r: 0.9, g: 0.9, b: 1, a: 1}
  airMaximumAltitude:
    m_OverrideState: 0
    m_Value: 55261.973
  aerosolDensity:
    m_OverrideState: 1
    m_Value: 0.132
  aerosolTint:
    m_OverrideState: 0
    m_Value: {r: 0.9, g: 0.9, b: 0.9, a: 1}
  aerosolMaximumAltitude:
    m_OverrideState: 0
    m_Value: 8289.296
  aerosolAnisotropy:
    m_OverrideState: 0
    m_Value: 0
  numberOfBounces:
    m_OverrideState: 0
    m_Value: 3
  groundTint:
    m_OverrideState: 1
    m_Value: {r: 0.23584908, g: 0.23584908, b: 0.23584908, a: 1}
  groundColorTexture:
    m_OverrideState: 0
    m_Value: {fileID: 0}
  groundEmissionTexture:
    m_OverrideState: 0
    m_Value: {fileID: 0}
  groundEmissionMultiplier:
    m_OverrideState: 0
    m_Value: 1
  planetRotation:
    m_OverrideState: 0
    m_Value: {x: 0, y: 0, z: 0}
  spaceEmissionTexture:
    m_OverrideState: 0
    m_Value: {fileID: 0}
  spaceEmissionMultiplier:
    m_OverrideState: 0
    m_Value: 1
  spaceRotation:
    m_OverrideState: 0
    m_Value: {x: 0, y: 0, z: 0}
  colorSaturation:
    m_OverrideState: 0
    m_Value: 1
  alphaSaturation:
    m_OverrideState: 0
    m_Value: 1
  alphaMultiplier:
    m_OverrideState: 0
    m_Value: 1
  horizonTint:
    m_OverrideState: 1
    m_Value: {r: 0.31372547, g: 0.96738976, b: 1, a: 1}
  zenithTint:
    m_OverrideState: 1
    m_Value: {r: 1, g: 1, b: 1, a: 1}
  horizonZenithShift:
    m_OverrideState: 1
    m_Value: 1
  m_SkyVersion: 1
  m_ObsoleteEarthPreset:
    m_OverrideState: 0
    m_Value: 1
--- !u!114 &-1913790188202945083
MonoBehaviour:
  m_ObjectHideFlags: 3
  m_CorrespondingSourceObject: {fileID: 0}
  m_PrefabInstance: {fileID: 0}
  m_PrefabAsset: {fileID: 0}
  m_GameObject: {fileID: 0}
  m_Enabled: 1
  m_EditorHideFlags: 0
  m_Script: {fileID: 11500000, guid: 32b6af8f7ad32324cb6941c3290e5895, type: 3}
  m_Name: MicroShadowing
  m_EditorClassIdentifier: 
  active: 0
  enable:
    m_OverrideState: 1
    m_Value: 1
  opacity:
    m_OverrideState: 1
    m_Value: 0.493
--- !u!114 &-821470236146578412
MonoBehaviour:
  m_ObjectHideFlags: 3
  m_CorrespondingSourceObject: {fileID: 0}
  m_PrefabInstance: {fileID: 0}
  m_PrefabAsset: {fileID: 0}
  m_GameObject: {fileID: 0}
  m_Enabled: 1
  m_EditorHideFlags: 0
  m_Script: {fileID: 11500000, guid: 42ef2681fa3dc8c4fa031f044e68c63f, type: 3}
  m_Name: GlobalIllumination
  m_EditorClassIdentifier: 
  active: 0
  quality:
    m_OverrideState: 1
    m_Value: 2
  enable:
    m_OverrideState: 1
    m_Value: 1
  tracing:
    m_OverrideState: 1
    m_Value: 1
  rayMiss:
    m_OverrideState: 0
    m_Value: 3
  depthBufferThickness:
    m_OverrideState: 1
    m_Value: 0.1
  fullResolutionSS:
    m_OverrideState: 1
    m_Value: 1
  m_MaxRaySteps:
    m_OverrideState: 1
    m_Value: 128
  m_DenoiseSS:
    m_OverrideState: 1
    m_Value: 1
  m_HalfResolutionDenoiserSS:
    m_OverrideState: 1
    m_Value: 0
  m_DenoiserRadiusSS:
    m_OverrideState: 1
    m_Value: 0.5
  m_SecondDenoiserPassSS:
    m_OverrideState: 1
    m_Value: 1
  lastBounceFallbackHierarchy:
    m_OverrideState: 0
    m_Value: 3
  ambientProbeDimmer:
    m_OverrideState: 0
    m_Value: 0
  layerMask:
    m_OverrideState: 1
    m_Value:
      serializedVersion: 2
      m_Bits: 4294967295
  textureLodBias:
    m_OverrideState: 1
    m_Value: 7
  m_RayLength:
    m_OverrideState: 1
    m_Value: 50
  m_ClampValue:
    m_OverrideState: 1
    m_Value: 1
  mode:
    m_OverrideState: 1
    m_Value: 2
  m_FullResolution:
    m_OverrideState: 1
    m_Value: 0
  sampleCount:
    m_OverrideState: 1
    m_Value: 2
  bounceCount:
    m_OverrideState: 1
    m_Value: 1
  m_Denoise:
    m_OverrideState: 1
    m_Value: 1
  m_HalfResolutionDenoiser:
    m_OverrideState: 1
    m_Value: 0
  m_DenoiserRadius:
    m_OverrideState: 1
    m_Value: 0.6
  m_SecondDenoiserPass:
    m_OverrideState: 1
    m_Value: 1
  m_MaxMixedRaySteps:
    m_OverrideState: 1
    m_Value: 48
  receiverMotionRejection:
    m_OverrideState: 0
    m_Value: 1
--- !u!114 &-172222092547494590
MonoBehaviour:
  m_ObjectHideFlags: 3
  m_CorrespondingSourceObject: {fileID: 0}
  m_PrefabInstance: {fileID: 0}
  m_PrefabAsset: {fileID: 0}
  m_GameObject: {fileID: 0}
  m_Enabled: 1
  m_EditorHideFlags: 0
  m_Script: {fileID: 11500000, guid: 56b145d2b9ee1ac4f846968484e7485a, type: 3}
  m_Name: ContactShadows
  m_EditorClassIdentifier: 
  active: 1
  quality:
    m_OverrideState: 1
    m_Value: 0
  enable:
    m_OverrideState: 1
    m_Value: 1
  length:
    m_OverrideState: 1
    m_Value: 0.15
  opacity:
    m_OverrideState: 1
    m_Value: 1
  distanceScaleFactor:
    m_OverrideState: 1
    m_Value: 0.5
  maxDistance:
    m_OverrideState: 1
    m_Value: 50
  minDistance:
    m_OverrideState: 1
    m_Value: 0
  fadeDistance:
    m_OverrideState: 1
    m_Value: 5
  fadeInDistance:
    m_OverrideState: 1
    m_Value: 0
  rayBias:
    m_OverrideState: 1
    m_Value: 0.2
  thicknessScale:
    m_OverrideState: 1
    m_Value: 0.15
  m_SampleCount:
    m_OverrideState: 1
    m_Value: 4
--- !u!114 &-107826345094389726
MonoBehaviour:
  m_ObjectHideFlags: 3
  m_CorrespondingSourceObject: {fileID: 0}
  m_PrefabInstance: {fileID: 0}
  m_PrefabAsset: {fileID: 0}
  m_GameObject: {fileID: 0}
  m_Enabled: 1
  m_EditorHideFlags: 0
  m_Script: {fileID: 11500000, guid: 2d08ce26990eb1a4a9177b860541e702, type: 3}
  m_Name: Exposure
  m_EditorClassIdentifier: 
  active: 0
  mode:
    m_OverrideState: 1
    m_Value: 0
  meteringMode:
    m_OverrideState: 0
    m_Value: 2
  luminanceSource:
    m_OverrideState: 0
    m_Value: 1
  fixedExposure:
    m_OverrideState: 1
    m_Value: 12.264706
  compensation:
    m_OverrideState: 0
    m_Value: 0
  limitMin:
    m_OverrideState: 0
    m_Value: -1
  limitMax:
    m_OverrideState: 0
    m_Value: 14
  curveMap:
    m_OverrideState: 0
    m_Value:
      serializedVersion: 2
      m_Curve:
      - serializedVersion: 3
        time: -10
        value: -10
        inSlope: 0
        outSlope: 1
        tangentMode: 0
        weightedMode: 0
        inWeight: 0
        outWeight: 0
      - serializedVersion: 3
        time: 20
        value: 20
        inSlope: 1
        outSlope: 0
        tangentMode: 0
        weightedMode: 0
        inWeight: 0
        outWeight: 0
      m_PreInfinity: 2
      m_PostInfinity: 2
      m_RotationOrder: 4
  limitMinCurveMap:
    m_OverrideState: 0
    m_Value:
      serializedVersion: 2
      m_Curve:
      - serializedVersion: 3
        time: -10
        value: -12
        inSlope: 0
        outSlope: 1
        tangentMode: 0
        weightedMode: 0
        inWeight: 0
        outWeight: 0
      - serializedVersion: 3
        time: 20
        value: 18
        inSlope: 1
        outSlope: 0
        tangentMode: 0
        weightedMode: 0
        inWeight: 0
        outWeight: 0
      m_PreInfinity: 2
      m_PostInfinity: 2
      m_RotationOrder: 4
  limitMaxCurveMap:
    m_OverrideState: 0
    m_Value:
      serializedVersion: 2
      m_Curve:
      - serializedVersion: 3
        time: -10
        value: -8
        inSlope: 0
        outSlope: 1
        tangentMode: 0
        weightedMode: 0
        inWeight: 0
        outWeight: 0
      - serializedVersion: 3
        time: 20
        value: 22
        inSlope: 1
        outSlope: 0
        tangentMode: 0
        weightedMode: 0
        inWeight: 0
        outWeight: 0
      m_PreInfinity: 2
      m_PostInfinity: 2
      m_RotationOrder: 4
  adaptationMode:
    m_OverrideState: 0
    m_Value: 1
  adaptationSpeedDarkToLight:
    m_OverrideState: 0
    m_Value: 3
  adaptationSpeedLightToDark:
    m_OverrideState: 0
    m_Value: 1
  weightTextureMask:
    m_OverrideState: 0
    m_Value: {fileID: 0}
  histogramPercentages:
    m_OverrideState: 0
    m_Value: {x: 40, y: 90}
  histogramUseCurveRemapping:
    m_OverrideState: 0
    m_Value: 0
  targetMidGray:
    m_OverrideState: 0
    m_Value: 0
  centerAroundExposureTarget:
    m_OverrideState: 0
    m_Value: 0
  proceduralCenter:
    m_OverrideState: 0
    m_Value: {x: 0.5, y: 0.5}
  proceduralRadii:
    m_OverrideState: 0
    m_Value: {x: 0.3, y: 0.3}
  maskMinIntensity:
    m_OverrideState: 0
    m_Value: -30
  maskMaxIntensity:
    m_OverrideState: 0
    m_Value: 30
  proceduralSoftness:
    m_OverrideState: 0
    m_Value: 0.5
--- !u!114 &11400000
MonoBehaviour:
  m_ObjectHideFlags: 0
  m_CorrespondingSourceObject: {fileID: 0}
  m_PrefabInstance: {fileID: 0}
  m_PrefabAsset: {fileID: 0}
  m_GameObject: {fileID: 0}
  m_Enabled: 1
  m_EditorHideFlags: 0
  m_Script: {fileID: 11500000, guid: d7fd9488000d3734a9e00ee676215985, type: 3}
  m_Name: Global Volume Profile 1
  m_EditorClassIdentifier: 
  components:
  - {fileID: -8023505902820117270}
  - {fileID: -6925526883324816133}
  - {fileID: -2760549565193467533}
  - {fileID: 4134559195463356723}
  - {fileID: 5266295425326279224}
  - {fileID: -821470236146578412}
  - {fileID: 936342596619233921}
  - {fileID: -7887247051497499587}
  - {fileID: -1913790188202945083}
  - {fileID: -172222092547494590}
  - {fileID: -107826345094389726}
  - {fileID: -5051271865952391873}
--- !u!114 &936342596619233921
MonoBehaviour:
  m_ObjectHideFlags: 3
  m_CorrespondingSourceObject: {fileID: 0}
  m_PrefabInstance: {fileID: 0}
  m_PrefabAsset: {fileID: 0}
  m_GameObject: {fileID: 0}
  m_Enabled: 1
  m_EditorHideFlags: 0
  m_Script: {fileID: 11500000, guid: 384c4d03a551c44448145f4093304119, type: 3}
  m_Name: ScreenSpaceReflection
  m_EditorClassIdentifier: 
  active: 0
  quality:
    m_OverrideState: 0
    m_Value: 1
  enabled:
    m_OverrideState: 0
    m_Value: 1
  enabledTransparent:
    m_OverrideState: 0
    m_Value: 1
  tracing:
    m_OverrideState: 0
    m_Value: 1
  m_MinSmoothness:
    m_OverrideState: 0
    m_Value: 0.9
  m_SmoothnessFadeStart:
    m_OverrideState: 0
    m_Value: 0.9
  reflectSky:
    m_OverrideState: 0
    m_Value: 1
  usedAlgorithm:
    m_OverrideState: 0
    m_Value: 0
  depthBufferThickness:
    m_OverrideState: 0
    m_Value: 0.01
  screenFadeDistance:
    m_OverrideState: 0
    m_Value: 0.1
  accumulationFactor:
    m_OverrideState: 0
    m_Value: 0.75
  m_RayMaxIterations:
    m_OverrideState: 0
    m_Value: 24
  rayMiss:
    m_OverrideState: 0
    m_Value: 3
  lastBounceFallbackHierarchy:
    m_OverrideState: 0
    m_Value: 3
  ambientProbeDimmer:
    m_OverrideState: 0
    m_Value: 1
  layerMask:
    m_OverrideState: 0
    m_Value:
      serializedVersion: 2
      m_Bits: 4294967295
  textureLodBias:
    m_OverrideState: 0
    m_Value: 1
  m_RayLength:
    m_OverrideState: 0
    m_Value: 50
  m_ClampValue:
    m_OverrideState: 0
    m_Value: 1
  m_Denoise:
    m_OverrideState: 0
    m_Value: 1
  m_DenoiserRadius:
    m_OverrideState: 0
    m_Value: 8
  m_AffectSmoothSurfaces:
    m_OverrideState: 0
    m_Value: 0
  mode:
    m_OverrideState: 0
    m_Value: 2
  m_FullResolution:
    m_OverrideState: 0
    m_Value: 0
  sampleCount:
    m_OverrideState: 0
    m_Value: 1
  bounceCount:
    m_OverrideState: 0
    m_Value: 1
  m_RayMaxIterationsRT:
    m_OverrideState: 0
    m_Value: 48
--- !u!114 &4134559195463356723
MonoBehaviour:
  m_ObjectHideFlags: 3
  m_CorrespondingSourceObject: {fileID: 0}
  m_PrefabInstance: {fileID: 0}
  m_PrefabAsset: {fileID: 0}
  m_GameObject: {fileID: 0}
  m_Enabled: 1
  m_EditorHideFlags: 0
  m_Script: {fileID: 11500000, guid: 953beb541740ddc499d005ee80c9ff29, type: 3}
  m_Name: Fog
  m_EditorClassIdentifier: 
  active: 1
  quality:
    m_OverrideState: 1
    m_Value: 0
  enabled:
    m_OverrideState: 1
    m_Value: 1
  colorMode:
    m_OverrideState: 1
    m_Value: 1
  color:
    m_OverrideState: 1
    m_Value: {r: 0.5, g: 0.5, b: 0.5, a: 1}
  tint:
    m_OverrideState: 1
    m_Value: {r: 0.15850833, g: 0.5920232, b: 0.6132076, a: 1}
  maxFogDistance:
    m_OverrideState: 1
    m_Value: 5000
  mipFogMaxMip:
    m_OverrideState: 0
    m_Value: 0.5
  mipFogNear:
    m_OverrideState: 0
    m_Value: 0
  mipFogFar:
    m_OverrideState: 0
    m_Value: 1000
  baseHeight:
    m_OverrideState: 1
    m_Value: 2.7
  maximumHeight:
    m_OverrideState: 1
    m_Value: 26.1
  meanFreePath:
    m_OverrideState: 1
    m_Value: 400
  enableVolumetricFog:
    m_OverrideState: 1
    m_Value: 1
  albedo:
    m_OverrideState: 1
    m_Value: {r: 0.58269846, g: 0.8301887, b: 0.8301887, a: 1}
  globalLightProbeDimmer:
    m_OverrideState: 1
    m_Value: 1
  depthExtent:
    m_OverrideState: 1
    m_Value: 500
  denoisingMode:
    m_OverrideState: 1
    m_Value: 2
  anisotropy:
    m_OverrideState: 0
    m_Value: 0
  sliceDistributionUniformity:
    m_OverrideState: 0
    m_Value: 0.75
  m_FogControlMode:
    m_OverrideState: 1
    m_Value: 0
  screenResolutionPercentage:
    m_OverrideState: 0
    m_Value: 12.5
  volumeSliceCount:
    m_OverrideState: 0
    m_Value: 64
  m_VolumetricFogBudget:
    m_OverrideState: 1
    m_Value: 0.166
  m_ResolutionDepthRatio:
    m_OverrideState: 1
    m_Value: 0.5
  directionalLightsOnly:
    m_OverrideState: 0
    m_Value: 0
--- !u!114 &5266295425326279224
MonoBehaviour:
  m_ObjectHideFlags: 3
  m_CorrespondingSourceObject: {fileID: 0}
  m_PrefabInstance: {fileID: 0}
  m_PrefabAsset: {fileID: 0}
  m_GameObject: {fileID: 0}
  m_Enabled: 1
  m_EditorHideFlags: 0
  m_Script: {fileID: 11500000, guid: 7e9e4ed5a6f56fb4ebd693e39684f36f, type: 3}
  m_Name: VolumetricClouds
  m_EditorClassIdentifier: 
  active: 1
  enable:
    m_OverrideState: 1
    m_Value: 1
  localClouds:
    m_OverrideState: 1
    m_Value: 0
  earthCurvature:
    m_OverrideState: 1
    m_Value: 0
  cloudTiling:
    m_OverrideState: 1
    m_Value: {x: 1, y: 1}
  cloudOffset:
    m_OverrideState: 1
    m_Value: {x: 0, y: 0}
  lowestCloudAltitude:
    m_OverrideState: 1
    m_Value: 1000
  cloudThickness:
    m_OverrideState: 1
    m_Value: 500
  fadeInMode:
    m_OverrideState: 1
    m_Value: 0
  fadeInStart:
    m_OverrideState: 1
    m_Value: 0
  fadeInDistance:
    m_OverrideState: 1
    m_Value: 0
  numPrimarySteps:
    m_OverrideState: 1
    m_Value: 64
  numLightSteps:
    m_OverrideState: 1
    m_Value: 6
  cloudMap:
    m_OverrideState: 1
    m_Value: {fileID: 0}
    dimension: 2
  cloudLut:
    m_OverrideState: 1
    m_Value: {fileID: 0}
    dimension: 2
  cloudControl:
    m_OverrideState: 1
    m_Value: 0
  cloudPreset:
    m_OverrideState: 1
    m_Value: 4
  cumulusMap:
    m_OverrideState: 1
    m_Value: {fileID: 0}
    dimension: 2
  cumulusMapMultiplier:
    m_OverrideState: 1
    m_Value: 1
  altoStratusMap:
    m_OverrideState: 1
    m_Value: {fileID: 0}
    dimension: 2
  altoStratusMapMultiplier:
    m_OverrideState: 1
    m_Value: 1
  cumulonimbusMap:
    m_OverrideState: 1
    m_Value: {fileID: 0}
    dimension: 2
  cumulonimbusMapMultiplier:
    m_OverrideState: 1
    m_Value: 1
  rainMap:
    m_OverrideState: 1
    m_Value: {fileID: 0}
    dimension: 2
  cloudMapResolution:
    m_OverrideState: 1
    m_Value: 64
  customDensityCurve:
    m_OverrideState: 1
    m_Value:
      serializedVersion: 2
      m_Curve:
      - serializedVersion: 3
        time: 0
        value: 0
        inSlope: 0
        outSlope: 0
        tangentMode: 0
        weightedMode: 0
        inWeight: 0
        outWeight: 0
      - serializedVersion: 3
        time: 0.14166565
        value: 0.60650253
        inSlope: 0
        outSlope: 0
        tangentMode: 0
        weightedMode: 0
        inWeight: 0
        outWeight: 0
      - serializedVersion: 3
        time: 0.33750916
        value: 0.947406
        inSlope: 0
        outSlope: 0
        tangentMode: 0
        weightedMode: 0
        inWeight: 0
        outWeight: 0
      - serializedVersion: 3
        time: 0.76665956
        value: 0.8798294
        inSlope: 0
        outSlope: 0
        tangentMode: 0
        weightedMode: 0
        inWeight: 0
        outWeight: 0
      - serializedVersion: 3
        time: 1
        value: 0
        inSlope: 0
        outSlope: 0
        tangentMode: 0
        weightedMode: 0
        inWeight: 0
        outWeight: 0
      m_PreInfinity: 2
      m_PostInfinity: 2
      m_RotationOrder: 4
  customErosionCurve:
    m_OverrideState: 1
    m_Value:
      serializedVersion: 2
      m_Curve:
      - serializedVersion: 3
        time: 0
        value: 0.9
        inSlope: 0
        outSlope: 0
        tangentMode: 0
        weightedMode: 0
        inWeight: 0
        outWeight: 0
      - serializedVersion: 3
        time: 0.2
        value: 1
        inSlope: 0
        outSlope: 0
        tangentMode: 0
        weightedMode: 0
        inWeight: 0
        outWeight: 0
      - serializedVersion: 3
        time: 0.8
        value: 1
        inSlope: 0
        outSlope: 0
        tangentMode: 0
        weightedMode: 0
        inWeight: 0
        outWeight: 0
      - serializedVersion: 3
        time: 1
        value: 0.9
        inSlope: 0
        outSlope: 0
        tangentMode: 0
        weightedMode: 0
        inWeight: 0
        outWeight: 0
      m_PreInfinity: 2
      m_PostInfinity: 2
      m_RotationOrder: 4
  customAmbientOcclusionCurve:
    m_OverrideState: 1
    m_Value:
      serializedVersion: 2
      m_Curve:
      - serializedVersion: 3
        time: 0
        value: 1
        inSlope: 0
        outSlope: 0
        tangentMode: 0
        weightedMode: 0
        inWeight: 0
        outWeight: 0
      - serializedVersion: 3
        time: 0
        value: 0
        inSlope: 0
        outSlope: 0
        tangentMode: 0
        weightedMode: 0
        inWeight: 0
        outWeight: 0
      - serializedVersion: 3
        time: 1
        value: 0
        inSlope: 0
        outSlope: 0
        tangentMode: 0
        weightedMode: 0
        inWeight: 0
        outWeight: 0
      m_PreInfinity: 2
      m_PostInfinity: 2
      m_RotationOrder: 4
  scatteringTint:
    m_OverrideState: 1
    m_Value: {r: 0, g: 0, b: 0, a: 1}
  powderEffectIntensity:
    m_OverrideState: 0
    m_Value: 0.25
  multiScattering:
    m_OverrideState: 0
    m_Value: 0.5
  densityMultiplier:
    m_OverrideState: 1
    m_Value: 0.553
  shapeFactor:
    m_OverrideState: 1
    m_Value: 0.795
  shapeScale:
    m_OverrideState: 1
    m_Value: 2.71
  shapeOffset:
    m_OverrideState: 1
    m_Value: {x: 0, y: 0, z: 0}
  erosionFactor:
    m_OverrideState: 1
    m_Value: 0.691
  erosionScale:
    m_OverrideState: 1
    m_Value: 50
  erosionNoiseType:
    m_OverrideState: 0
    m_Value: 1
  ambientLightProbeDimmer:
    m_OverrideState: 1
    m_Value: 1
  sunLightDimmer:
    m_OverrideState: 1
    m_Value: 1
  erosionOcclusion:
    m_OverrideState: 0
    m_Value: 0.1
  globalWindSpeed:
    m_OverrideState: 1
    m_Value:
      mode: 1
      customValue: 100
      additiveValue: 0
      multiplyValue: 1
  orientation:
    m_OverrideState: 1
    m_Value:
      mode: 1
      customValue: 0
      additiveValue: 0
      multiplyValue: 1
  altitudeDistortion:
    m_OverrideState: 0
    m_Value: 0.5
  cloudMapSpeedMultiplier:
    m_OverrideState: 0
    m_Value: 0.5
  shapeSpeedMultiplier:
    m_OverrideState: 0
    m_Value: 1
  erosionSpeedMultiplier:
    m_OverrideState: 0
    m_Value: 0.25
  verticalShapeWindSpeed:
    m_OverrideState: 0
    m_Value: 0
  verticalErosionWindSpeed:
    m_OverrideState: 0
    m_Value: 0
  temporalAccumulationFactor:
    m_OverrideState: 1
    m_Value: 0.95
  ghostingReduction:
    m_OverrideState: 1
    m_Value: 0
  perceptualBlending:
    m_OverrideState: 1
    m_Value: 1
  shadows:
    m_OverrideState: 1
    m_Value: 0
  shadowResolution:
    m_OverrideState: 1
    m_Value: 256
  shadowPlaneHeightOffset:
    m_OverrideState: 1
    m_Value: 0
  shadowDistance:
    m_OverrideState: 0
    m_Value: 8000
  shadowOpacity:
    m_OverrideState: 0
    m_Value: 1
  shadowOpacityFallback:
    m_OverrideState: 0
    m_Value: 0
  m_Version: 2
  m_ObsoleteWindSpeed:
    m_OverrideState: 1
    m_Value: 1
  m_ObsoleteOrientation:
    m_OverrideState: 1
    m_Value: 0
  m_ObsoleteShapeOffsetX:
    m_OverrideState: 1
    m_Value: 0
  m_ObsoleteShapeOffsetY:
    m_OverrideState: 1
    m_Value: 0
  m_ObsoleteShapeOffsetZ:
    m_OverrideState: 1
    m_Value: 0
