%YAML 1.1
%TAG !u! tag:unity3d.com,2011:
--- !u!29 &1
OcclusionCullingSettings:
  m_ObjectHideFlags: 0
  serializedVersion: 2
  m_OcclusionBakeSettings:
    smallestOccluder: 5
    smallestHole: 0.25
    backfaceThreshold: 100
  m_SceneGUID: 00000000000000000000000000000000
  m_OcclusionCullingData: {fileID: 0}
--- !u!104 &2
RenderSettings:
  m_ObjectHideFlags: 0
  serializedVersion: 9
  m_Fog: 1
  m_FogColor: {r: 0.4862745, g: 0.69411767, b: 0.8117647, a: 1}
  m_FogMode: 3
  m_FogDensity: 0.025
  m_LinearFogStart: 0
  m_LinearFogEnd: 300
  m_AmbientSkyColor: {r: 0.9386859, g: 0.90466136, b: 0.84687346, a: 1}
  m_AmbientEquatorColor: {r: 0.114, g: 0.125, b: 0.133, a: 1}
  m_AmbientGroundColor: {r: 0.047, g: 0.043, b: 0.035, a: 1}
  m_AmbientIntensity: 1
  m_AmbientMode: 0
  m_SubtractiveShadowColor: {r: 0.42, g: 0.478, b: 0.627, a: 1}
  m_SkyboxMaterial: {fileID: 0}
  m_HaloStrength: 0.5
  m_FlareStrength: 1
  m_FlareFadeSpeed: 3
  m_HaloTexture: {fileID: 0}
  m_SpotCookie: {fileID: 10001, guid: 0000000000000000e000000000000000, type: 0}
  m_DefaultReflectionMode: 1
  m_DefaultReflectionResolution: 128
  m_ReflectionBounces: 5
  m_ReflectionIntensity: 1
  m_CustomReflection: {fileID: 8900000, guid: 619e305f5165a9946b7f72464e44ca4a, type: 3}
  m_Sun: {fileID: 2114283754330233425}
  m_IndirectSpecularColor: {r: 2010.3984, g: 2165.4863, b: 2495.793, a: 1}
  m_UseRadianceAmbientProbe: 0
--- !u!157 &3
LightmapSettings:
  m_ObjectHideFlags: 0
  serializedVersion: 12
  m_GIWorkflowMode: 1
  m_GISettings:
    serializedVersion: 2
    m_BounceScale: 1
    m_IndirectOutputScale: 1
    m_AlbedoBoost: 1
    m_EnvironmentLightingMode: 0
    m_EnableBakedLightmaps: 1
    m_EnableRealtimeLightmaps: 0
  m_LightmapEditorSettings:
    serializedVersion: 12
    m_Resolution: 2
    m_BakeResolution: 80
    m_AtlasSize: 1024
    m_AO: 1
    m_AOMaxDistance: 1
    m_CompAOExponent: 0.4
    m_CompAOExponentDirect: 0.4
    m_ExtractAmbientOcclusion: 0
    m_Padding: 2
    m_LightmapParameters: {fileID: 15204, guid: 0000000000000000f000000000000000, type: 0}
    m_LightmapsBakeMode: 1
    m_TextureCompression: 1
    m_FinalGather: 0
    m_FinalGatherFiltering: 1
    m_FinalGatherRayCount: 256
    m_ReflectionCompression: 2
    m_MixedBakeMode: 2
    m_BakeBackend: 1
    m_PVRSampling: 1
    m_PVRDirectSampleCount: 400
    m_PVRSampleCount: 400
    m_PVRBounces: 4
    m_PVREnvironmentSampleCount: 500
    m_PVREnvironmentReferencePointCount: 2048
    m_PVRFilteringMode: 1
    m_PVRDenoiserTypeDirect: 1
    m_PVRDenoiserTypeIndirect: 1
    m_PVRDenoiserTypeAO: 1
    m_PVRFilterTypeDirect: 0
    m_PVRFilterTypeIndirect: 0
    m_PVRFilterTypeAO: 0
    m_PVREnvironmentMIS: 1
    m_PVRCulling: 0
    m_PVRFilteringGaussRadiusDirect: 1
    m_PVRFilteringGaussRadiusIndirect: 5
    m_PVRFilteringGaussRadiusAO: 2
    m_PVRFilteringAtrousPositionSigmaDirect: 0.5
    m_PVRFilteringAtrousPositionSigmaIndirect: 2
    m_PVRFilteringAtrousPositionSigmaAO: 1
    m_ExportTrainingData: 0
    m_TrainingDataDestination: TrainingData
    m_LightProbeSampleCountMultiplier: 4
  m_LightingDataAsset: {fileID: 112000000, guid: 51e8050f26ab504469d218c927558c5e, type: 2}
  m_LightingSettings: {fileID: 4890085278179872738, guid: 3b3f7400d3526e9429c39d03afb714b3, type: 2}
--- !u!196 &4
NavMeshSettings:
  serializedVersion: 2
  m_ObjectHideFlags: 0
  m_BuildSettings:
    serializedVersion: 2
    agentTypeID: 0
    agentRadius: 0.5
    agentHeight: 2
    agentSlope: 45
    agentClimb: 0.4
    ledgeDropHeight: 0
    maxJumpAcrossDistance: 0
    minRegionArea: 2
    manualCellSize: 0
    cellSize: 0.16666667
    manualTileSize: 0
    tileSize: 256
    accuratePlacement: 0
    maxJobWorkers: 0
    preserveTilesOutsideBounds: 0
    debug:
      m_Flags: 0
  m_NavMeshData: {fileID: 0}
--- !u!1 &542508511
GameObject:
  m_ObjectHideFlags: 0
  m_CorrespondingSourceObject: {fileID: 0}
  m_PrefabInstance: {fileID: 0}
  m_PrefabAsset: {fileID: 0}
  serializedVersion: 6
  m_Component:
  - component: {fileID: 542508512}
  - component: {fileID: 542508513}
  - component: {fileID: 542508514}
  m_Layer: 0
  m_Name: Reflection Probe (1)
  m_TagString: Untagged
  m_Icon: {fileID: 0}
  m_NavMeshLayer: 0
  m_StaticEditorFlags: 0
  m_IsActive: 1
--- !u!4 &542508512
Transform:
  m_ObjectHideFlags: 0
  m_CorrespondingSourceObject: {fileID: 0}
  m_PrefabInstance: {fileID: 0}
  m_PrefabAsset: {fileID: 0}
  m_GameObject: {fileID: 542508511}
  m_LocalRotation: {x: -0, y: -0, z: -0, w: 1}
  m_LocalPosition: {x: 6.881203, y: 1.4691391, z: 10.848265}
  m_LocalScale: {x: 1, y: 1, z: 1}
  m_ConstrainProportionsScale: 0
  m_Children: []
  m_Father: {fileID: 2114283753834967213}
  m_RootOrder: 3
  m_LocalEulerAnglesHint: {x: 0, y: 0, z: 0}
--- !u!215 &542508513
ReflectionProbe:
  m_ObjectHideFlags: 0
  m_CorrespondingSourceObject: {fileID: 0}
  m_PrefabInstance: {fileID: 0}
  m_PrefabAsset: {fileID: 0}
  m_GameObject: {fileID: 542508511}
  m_Enabled: 1
  serializedVersion: 2
  m_Type: 0
  m_Mode: 2
  m_RefreshMode: 2
  m_TimeSlicingMode: 0
  m_Resolution: 128
  m_UpdateFrequency: 0
  m_BoxSize: {x: 6.791793, y: 3.0818176, z: 6.757762}
  m_BoxOffset: {x: 0, y: 0, z: 0}
  m_NearClip: 0.3
  m_FarClip: 1000
  m_ShadowDistance: 100
  m_ClearFlags: 1
  m_BackGroundColor: {r: 0.19215687, g: 0.3019608, b: 0.4745098, a: 0}
  m_CullingMask:
    serializedVersion: 2
    m_Bits: 4294967295
  m_IntensityMultiplier: 1
  m_BlendDistance: 1
  m_HDR: 1
  m_BoxProjection: 0
  m_RenderDynamicObjects: 0
  m_UseOcclusionCulling: 1
  m_Importance: 1
  m_CustomBakedTexture: {fileID: 0}
--- !u!114 &542508514
MonoBehaviour:
  m_ObjectHideFlags: 0
  m_CorrespondingSourceObject: {fileID: 0}
  m_PrefabInstance: {fileID: 0}
  m_PrefabAsset: {fileID: 0}
  m_GameObject: {fileID: 542508511}
  m_Enabled: 1
  m_EditorHideFlags: 0
  m_Script: {fileID: 11500000, guid: d0ef8dc2c2eabfa4e8cb77be57a837c0, type: 3}
  m_Name: 
  m_EditorClassIdentifier: 
  m_ProbeSettings:
    frustum:
      fieldOfViewMode: 1
      fixedValue: 90
      automaticScale: 1
      viewerScale: 1
    type: 0
    mode: 0
    realtimeMode: 1
    lighting:
      multiplier: 1
      weight: 1
      lightLayer: 1
      fadeDistance: 10000
      rangeCompressionFactor: 1
    influence:
      m_Shape: 0
      m_BoxSize: {x: 6.791793, y: 3.0818176, z: 6.757762}
      m_BoxBlendDistancePositive: {x: 1, y: 1, z: 1}
      m_BoxBlendDistanceNegative: {x: 1, y: 1, z: 1}
      m_BoxBlendNormalDistancePositive: {x: 0, y: 0, z: 0}
      m_BoxBlendNormalDistanceNegative: {x: 0, y: 0, z: 0}
      m_BoxSideFadePositive: {x: 1, y: 1, z: 1}
      m_BoxSideFadeNegative: {x: 1, y: 1, z: 1}
      m_SphereRadius: 3
      m_SphereBlendDistance: 0
      m_SphereBlendNormalDistance: 0
      m_EditorAdvancedModeBlendDistancePositive: {x: 0, y: 0, z: 0}
      m_EditorAdvancedModeBlendDistanceNegative: {x: 0, y: 0, z: 0}
      m_EditorSimplifiedModeBlendDistance: 0
      m_EditorAdvancedModeBlendNormalDistancePositive: {x: 0, y: 0, z: 0}
      m_EditorAdvancedModeBlendNormalDistanceNegative: {x: 0, y: 0, z: 0}
      m_EditorSimplifiedModeBlendNormalDistance: 0
      m_EditorAdvancedModeEnabled: 0
      m_EditorAdvancedModeFaceFadePositive: {x: 1, y: 1, z: 1}
      m_EditorAdvancedModeFaceFadeNegative: {x: 1, y: 1, z: 1}
      m_Version: 1
      m_ObsoleteSphereBaseOffset: {x: 0, y: 0, z: 0}
      m_ObsoleteOffset: {x: 0.3952031, y: -0.096860886, z: -0.21973467}
    proxy:
      m_Shape: 0
      m_BoxSize: {x: 1, y: 1, z: 1}
      m_SphereRadius: 1
      m_CSVersion: 2
      m_ObsoleteSphereInfiniteProjection: 0
      m_ObsoleteBoxInfiniteProjection: 0
    proxySettings:
      useInfluenceVolumeAsProxyVolume: 0
      capturePositionProxySpace: {x: -0.3952031, y: 0.096860886, z: 0.21973515}
      captureRotationProxySpace: {x: 0, y: 0, z: 0, w: 1}
      mirrorPositionProxySpace: {x: 0, y: 0, z: 0}
      mirrorRotationProxySpace: {x: 0, y: 0, z: 0, w: 0}
    resolutionScalable:
      m_Override: 512
      m_UseOverride: 0
      m_Level: 0
    resolution: 0
    cameraSettings:
      customRenderingSettings: 0
      renderingPathCustomFrameSettings:
        bitDatas:
          data1: 72198260625768269
          data2: 13763000477350330392
        lodBias: 1
        lodBiasMode: 0
        lodBiasQualityLevel: 0
        maximumLODLevel: 0
        maximumLODLevelMode: 0
        maximumLODLevelQualityLevel: 0
        sssQualityMode: 0
        sssQualityLevel: 0
        sssCustomSampleBudget: 20
        msaaMode: 1
        materialQuality: 0
      renderingPathCustomFrameSettingsOverrideMask:
        mask:
          data1: 0
          data2: 0
      bufferClearing:
        clearColorMode: 0
        backgroundColorHDR: {r: 0.023529412, g: 0.07058824, b: 0.1882353, a: 0}
        clearDepth: 1
      volumes:
        layerMask:
          serializedVersion: 2
          m_Bits: 1
        anchorOverride: {fileID: 0}
      frustum:
        mode: 0
        aspect: 1
        farClipPlaneRaw: 1000
        nearClipPlaneRaw: 0.3
        fieldOfView: 90
        projectionMatrix:
          e00: 1
          e01: 0
          e02: 0
          e03: 0
          e10: 0
          e11: 1
          e12: 0
          e13: 0
          e20: 0
          e21: 0
          e22: 1
          e23: 0
          e30: 0
          e31: 0
          e32: 0
          e33: 1
      culling:
        useOcclusionCulling: 1
        cullingMask:
          serializedVersion: 2
          m_Bits: 4294967295
        sceneCullingMaskOverride: 0
      invertFaceCulling: 0
      flipYMode: 0
      probeLayerMask:
        serializedVersion: 2
        m_Bits: 4294967295
      defaultFrameSettings: 0
      m_ObsoleteRenderingPath: 0
      m_ObsoleteFrameSettings:
        overrides: 0
        enableShadow: 0
        enableContactShadows: 0
        enableShadowMask: 0
        enableSSR: 0
        enableSSAO: 0
        enableSubsurfaceScattering: 0
        enableTransmission: 0
        enableAtmosphericScattering: 0
        enableVolumetrics: 0
        enableReprojectionForVolumetrics: 0
        enableLightLayers: 0
        enableExposureControl: 1
        diffuseGlobalDimmer: 0
        specularGlobalDimmer: 0
        shaderLitMode: 0
        enableDepthPrepassWithDeferredRendering: 0
        enableTransparentPrepass: 0
        enableMotionVectors: 0
        enableObjectMotionVectors: 0
        enableDecals: 0
        enableRoughRefraction: 0
        enableTransparentPostpass: 0
        enableDistortion: 0
        enablePostprocess: 0
        enableOpaqueObjects: 0
        enableTransparentObjects: 0
        enableRealtimePlanarReflection: 0
        enableMSAA: 0
        enableAsyncCompute: 0
        runLightListAsync: 0
        runSSRAsync: 0
        runSSAOAsync: 0
        runContactShadowsAsync: 0
        runVolumeVoxelizationAsync: 0
        lightLoopSettings:
          overrides: 0
          enableDeferredTileAndCluster: 0
          enableComputeLightEvaluation: 0
          enableComputeLightVariants: 0
          enableComputeMaterialVariants: 0
          enableFptlForForwardOpaque: 0
          enableBigTilePrepass: 0
          isFptlEnabled: 0
    roughReflections: 1
    distanceBasedRoughness: 0
  m_ProbeSettingsOverride:
    probe: 0
    camera:
      camera: 0
  m_ProxyVolume: {fileID: 0}
  m_BakedTexture: {fileID: 8900000, guid: b65762d7243eb714e903b585ed68a576, type: 3}
  m_CustomTexture: {fileID: 0}
  m_BakedRenderData:
    m_WorldToCameraRHS:
      e00: 0
      e01: 0
      e02: 0
      e03: 0
      e10: 0
      e11: 0
      e12: 0
      e13: 0
      e20: 0
      e21: 0
      e22: 0
      e23: 0
      e30: 0
      e31: 0
      e32: 0
      e33: 0
    m_ProjectionMatrix:
      e00: 0
      e01: 0
      e02: 0
      e03: 0
      e10: 0
      e11: 0
      e12: 0
      e13: 0
      e20: 0
      e21: 0
      e22: 0
      e23: 0
      e30: 0
      e31: 0
      e32: 0
      e33: 0
    m_CapturePosition: {x: 0, y: 0, z: 0}
    m_CaptureRotation: {x: 0, y: 0, z: 0, w: 0}
    m_FieldOfView: 0
    m_Aspect: 0
  m_CustomRenderData:
    m_WorldToCameraRHS:
      e00: 0
      e01: 0
      e02: 0
      e03: 0
      e10: 0
      e11: 0
      e12: 0
      e13: 0
      e20: 0
      e21: 0
      e22: 0
      e23: 0
      e30: 0
      e31: 0
      e32: 0
      e33: 0
    m_ProjectionMatrix:
      e00: 0
      e01: 0
      e02: 0
      e03: 0
      e10: 0
      e11: 0
      e12: 0
      e13: 0
      e20: 0
      e21: 0
      e22: 0
      e23: 0
      e30: 0
      e31: 0
      e32: 0
      e33: 0
    m_CapturePosition: {x: 0, y: 0, z: 0}
    m_CaptureRotation: {x: 0, y: 0, z: 0, w: 0}
    m_FieldOfView: 0
    m_Aspect: 0
  m_SHForNormalization:
    sh[ 0]: 0
    sh[ 1]: 0
    sh[ 2]: 0
    sh[ 3]: 0
    sh[ 4]: 0
    sh[ 5]: 0
    sh[ 6]: 0
    sh[ 7]: 0
    sh[ 8]: 0
    sh[ 9]: 0
    sh[10]: 0
    sh[11]: 0
    sh[12]: 0
    sh[13]: 0
    sh[14]: 0
    sh[15]: 0
    sh[16]: 0
    sh[17]: 0
    sh[18]: 0
    sh[19]: 0
    sh[20]: 0
    sh[21]: 0
    sh[22]: 0
    sh[23]: 0
    sh[24]: 0
    sh[25]: 0
    sh[26]: 0
  m_HasValidSHForNormalization: 0
  m_HDProbeVersion: 3
  m_ObsoleteInfiniteProjection: 1
  m_ObsoleteInfluenceVolume:
    m_Shape: 0
    m_BoxSize: {x: 6.791793, y: 3.0818176, z: 6.757762}
    m_BoxBlendDistancePositive: {x: 1, y: 1, z: 1}
    m_BoxBlendDistanceNegative: {x: 1, y: 1, z: 1}
    m_BoxBlendNormalDistancePositive: {x: 0, y: 0, z: 0}
    m_BoxBlendNormalDistanceNegative: {x: 0, y: 0, z: 0}
    m_BoxSideFadePositive: {x: 1, y: 1, z: 1}
    m_BoxSideFadeNegative: {x: 1, y: 1, z: 1}
    m_SphereRadius: 3
    m_SphereBlendDistance: 0
    m_SphereBlendNormalDistance: 0
    m_EditorAdvancedModeBlendDistancePositive: {x: 0, y: 0, z: 0}
    m_EditorAdvancedModeBlendDistanceNegative: {x: 0, y: 0, z: 0}
    m_EditorSimplifiedModeBlendDistance: 0
    m_EditorAdvancedModeBlendNormalDistancePositive: {x: 0, y: 0, z: 0}
    m_EditorAdvancedModeBlendNormalDistanceNegative: {x: 0, y: 0, z: 0}
    m_EditorSimplifiedModeBlendNormalDistance: 0
    m_EditorAdvancedModeEnabled: 0
    m_EditorAdvancedModeFaceFadePositive: {x: 1, y: 1, z: 1}
    m_EditorAdvancedModeFaceFadeNegative: {x: 1, y: 1, z: 1}
    m_Version: 1
    m_ObsoleteSphereBaseOffset: {x: 0, y: 0, z: 0}
    m_ObsoleteOffset: {x: 0.3952031, y: -0.096860886, z: -0.21973467}
  m_ObsoleteFrameSettings:
    overrides: 0
    enableShadow: 0
    enableContactShadows: 0
    enableShadowMask: 0
    enableSSR: 0
    enableSSAO: 0
    enableSubsurfaceScattering: 0
    enableTransmission: 0
    enableAtmosphericScattering: 0
    enableVolumetrics: 0
    enableReprojectionForVolumetrics: 0
    enableLightLayers: 0
    enableExposureControl: 1
    diffuseGlobalDimmer: 0
    specularGlobalDimmer: 0
    shaderLitMode: 0
    enableDepthPrepassWithDeferredRendering: 0
    enableTransparentPrepass: 0
    enableMotionVectors: 0
    enableObjectMotionVectors: 0
    enableDecals: 0
    enableRoughRefraction: 0
    enableTransparentPostpass: 0
    enableDistortion: 0
    enablePostprocess: 0
    enableOpaqueObjects: 0
    enableTransparentObjects: 0
    enableRealtimePlanarReflection: 0
    enableMSAA: 0
    enableAsyncCompute: 0
    runLightListAsync: 0
    runSSRAsync: 0
    runSSAOAsync: 0
    runContactShadowsAsync: 0
    runVolumeVoxelizationAsync: 0
    lightLoopSettings:
      overrides: 0
      enableDeferredTileAndCluster: 0
      enableComputeLightEvaluation: 0
      enableComputeLightVariants: 0
      enableComputeMaterialVariants: 0
      enableFptlForForwardOpaque: 0
      enableBigTilePrepass: 0
      isFptlEnabled: 0
  m_ObsoleteMultiplier: 1
  m_ObsoleteWeight: 1
  m_ObsoleteMode: 0
  m_ObsoleteLightLayers: 1
  m_ObsoleteCaptureSettings:
    overrides: 0
    clearColorMode: 0
    backgroundColorHDR: {r: 0.023529412, g: 0.07058824, b: 0.1882353, a: 0}
    clearDepth: 1
    cullingMask:
      serializedVersion: 2
      m_Bits: 4294967295
    useOcclusionCulling: 1
    volumeLayerMask:
      serializedVersion: 2
      m_Bits: 1
    volumeAnchorOverride: {fileID: 0}
    projection: 0
    nearClipPlane: 0.3
    farClipPlane: 1000
    fieldOfView: 90
    orthographicSize: 5
    renderingPath: 0
    shadowDistance: 100
  m_ReflectionProbeVersion: 9
  m_ObsoleteInfluenceShape: 0
  m_ObsoleteInfluenceSphereRadius: 3
  m_ObsoleteBlendDistancePositive: {x: 1, y: 1, z: 1}
  m_ObsoleteBlendDistanceNegative: {x: 1, y: 1, z: 1}
  m_ObsoleteBlendNormalDistancePositive: {x: 0, y: 0, z: 0}
  m_ObsoleteBlendNormalDistanceNegative: {x: 0, y: 0, z: 0}
  m_ObsoleteBoxSideFadePositive: {x: 1, y: 1, z: 1}
  m_ObsoleteBoxSideFadeNegative: {x: 1, y: 1, z: 1}
--- !u!4 &700051398 stripped
Transform:
  m_CorrespondingSourceObject: {fileID: 8338988566280778637, guid: 64dce48905ffd9b4293e595fa6941544, type: 3}
  m_PrefabInstance: {fileID: 1762682258}
  m_PrefabAsset: {fileID: 0}
--- !u!1001 &746329221
PrefabInstance:
  m_ObjectHideFlags: 0
  serializedVersion: 2
  m_Modification:
    m_TransformParent: {fileID: 0}
    m_Modifications:
    - target: {fileID: 1992104595683069851, guid: f0271df749728104eac22c3d897fd8ce, type: 3}
      propertyPath: m_Name
      value: UI_EventSystem
      objectReference: {fileID: 0}
    - target: {fileID: 8063073397250431797, guid: f0271df749728104eac22c3d897fd8ce, type: 3}
      propertyPath: m_RootOrder
      value: 6
      objectReference: {fileID: 0}
    - target: {fileID: 8063073397250431797, guid: f0271df749728104eac22c3d897fd8ce, type: 3}
      propertyPath: m_LocalScale.x
      value: 1
      objectReference: {fileID: 0}
    - target: {fileID: 8063073397250431797, guid: f0271df749728104eac22c3d897fd8ce, type: 3}
      propertyPath: m_LocalScale.y
      value: 1
      objectReference: {fileID: 0}
    - target: {fileID: 8063073397250431797, guid: f0271df749728104eac22c3d897fd8ce, type: 3}
      propertyPath: m_LocalScale.z
      value: 1
      objectReference: {fileID: 0}
    - target: {fileID: 8063073397250431797, guid: f0271df749728104eac22c3d897fd8ce, type: 3}
      propertyPath: m_LocalPosition.x
      value: 0
      objectReference: {fileID: 0}
    - target: {fileID: 8063073397250431797, guid: f0271df749728104eac22c3d897fd8ce, type: 3}
      propertyPath: m_LocalPosition.y
      value: 0
      objectReference: {fileID: 0}
    - target: {fileID: 8063073397250431797, guid: f0271df749728104eac22c3d897fd8ce, type: 3}
      propertyPath: m_LocalPosition.z
      value: 0
      objectReference: {fileID: 0}
    - target: {fileID: 8063073397250431797, guid: f0271df749728104eac22c3d897fd8ce, type: 3}
      propertyPath: m_LocalRotation.w
      value: 1
      objectReference: {fileID: 0}
    - target: {fileID: 8063073397250431797, guid: f0271df749728104eac22c3d897fd8ce, type: 3}
      propertyPath: m_LocalRotation.x
      value: -0
      objectReference: {fileID: 0}
    - target: {fileID: 8063073397250431797, guid: f0271df749728104eac22c3d897fd8ce, type: 3}
      propertyPath: m_LocalRotation.y
      value: -0
      objectReference: {fileID: 0}
    - target: {fileID: 8063073397250431797, guid: f0271df749728104eac22c3d897fd8ce, type: 3}
      propertyPath: m_LocalRotation.z
      value: -0
      objectReference: {fileID: 0}
    - target: {fileID: 8063073397250431797, guid: f0271df749728104eac22c3d897fd8ce, type: 3}
      propertyPath: m_LocalEulerAnglesHint.x
      value: 0
      objectReference: {fileID: 0}
    - target: {fileID: 8063073397250431797, guid: f0271df749728104eac22c3d897fd8ce, type: 3}
      propertyPath: m_LocalEulerAnglesHint.y
      value: 0
      objectReference: {fileID: 0}
    - target: {fileID: 8063073397250431797, guid: f0271df749728104eac22c3d897fd8ce, type: 3}
      propertyPath: m_LocalEulerAnglesHint.z
      value: 0
      objectReference: {fileID: 0}
    m_RemovedComponents: []
  m_SourcePrefab: {fileID: 100100000, guid: f0271df749728104eac22c3d897fd8ce, type: 3}
--- !u!1 &874605735
GameObject:
  m_ObjectHideFlags: 0
  m_CorrespondingSourceObject: {fileID: 0}
  m_PrefabInstance: {fileID: 0}
  m_PrefabAsset: {fileID: 0}
  serializedVersion: 6
  m_Component:
  - component: {fileID: 874605736}
  - component: {fileID: 874605737}
  m_Layer: 0
  m_Name: Light Probe Group (1)
  m_TagString: Untagged
  m_Icon: {fileID: 0}
  m_NavMeshLayer: 0
  m_StaticEditorFlags: 0
  m_IsActive: 1
--- !u!4 &874605736
Transform:
  m_ObjectHideFlags: 0
  m_CorrespondingSourceObject: {fileID: 0}
  m_PrefabInstance: {fileID: 0}
  m_PrefabAsset: {fileID: 0}
  m_GameObject: {fileID: 874605735}
  m_LocalRotation: {x: -0, y: -0, z: -0, w: 1}
  m_LocalPosition: {x: 0.19, y: 1.79, z: 21.97}
  m_LocalScale: {x: 1, y: 1, z: 1}
  m_ConstrainProportionsScale: 0
  m_Children: []
  m_Father: {fileID: 2114283753834967213}
  m_RootOrder: 4
  m_LocalEulerAnglesHint: {x: 0, y: 0, z: 0}
--- !u!220 &874605737
LightProbeGroup:
  m_ObjectHideFlags: 0
  m_CorrespondingSourceObject: {fileID: 0}
  m_PrefabInstance: {fileID: 0}
  m_PrefabAsset: {fileID: 0}
  m_GameObject: {fileID: 874605735}
  m_Enabled: 1
  m_SourcePositions:
  - {x: -6.4548373, y: 8.806516, z: 6.631113}
  - {x: -6.4548373, y: -1.5343618, z: 6.631113}
  - {x: 8.993203, y: 8.806516, z: 6.631113}
  - {x: 8.993203, y: -1.5343618, z: 6.631113}
  - {x: -11.939235, y: 8.806516, z: 6.631113}
  - {x: -11.939235, y: -1.5343618, z: 6.631113}
  - {x: 3.7731261, y: 8.806516, z: 6.631113}
  - {x: 3.7731261, y: -1.5343618, z: 6.631113}
  - {x: 20.137163, y: 8.806516, z: 6.631113}
  - {x: 20.137163, y: -1.5343618, z: 6.631113}
  - {x: 14.257168, y: 8.806516, z: 6.631113}
  - {x: 14.257168, y: -1.5343618, z: 6.631113}
  - {x: -6.4548373, y: 2.3566551, z: 6.631113}
  - {x: 8.993203, y: 2.3566551, z: 6.631113}
  - {x: -11.939235, y: 2.3566551, z: 6.631113}
  - {x: 3.7731261, y: 2.3566551, z: 6.631113}
  - {x: 20.137163, y: 2.3566551, z: 6.631113}
  - {x: 14.257168, y: 2.3566551, z: 6.631113}
  - {x: -1.5323329, y: 8.806516, z: 6.631113}
  - {x: -1.5323329, y: -1.5343618, z: 6.631113}
  - {x: -1.5323329, y: 2.3566551, z: 6.631113}
  - {x: -6.4548373, y: 8.806516, z: -23.531504}
  - {x: -6.4548373, y: -1.5343618, z: -23.531504}
  - {x: 8.993203, y: 8.806516, z: -23.531504}
  - {x: 8.993203, y: -1.5343618, z: -23.531504}
  - {x: -11.939235, y: 8.806516, z: -23.531504}
  - {x: -11.939235, y: -1.5343618, z: -23.531504}
  - {x: 3.7731261, y: 8.806516, z: -23.531504}
  - {x: 3.7731261, y: -1.5343618, z: -23.531504}
  - {x: 20.137163, y: 8.806516, z: -23.531504}
  - {x: 20.137163, y: -1.5343618, z: -23.531504}
  - {x: 14.257168, y: 8.806516, z: -23.531504}
  - {x: 14.257168, y: -1.5343618, z: -23.531504}
  - {x: -6.4548373, y: 2.3566551, z: -23.531504}
  - {x: 8.993203, y: 2.3566551, z: -23.531504}
  - {x: -11.939235, y: 2.3566551, z: -23.531504}
  - {x: 3.7731261, y: 2.3566551, z: -23.531504}
  - {x: 20.137163, y: 2.3566551, z: -23.531504}
  - {x: 14.257168, y: 2.3566551, z: -23.531504}
  - {x: -1.5323329, y: 8.806516, z: -23.531504}
  - {x: -1.5323329, y: -1.5343618, z: -23.531504}
  - {x: -1.5323329, y: 2.3566551, z: -23.531504}
  - {x: -6.4548373, y: 8.806516, z: -19.921879}
  - {x: -6.0616884, y: -1.5343618, z: -19.921879}
  - {x: 8.993203, y: 8.806516, z: -19.921879}
  - {x: 8.993203, y: -1.5343618, z: -19.921879}
  - {x: -11.939235, y: 8.806516, z: -19.921879}
  - {x: -11.939235, y: -1.5343618, z: -19.921879}
  - {x: 3.7731261, y: 8.806516, z: -19.921879}
  - {x: 3.7731261, y: -1.5343618, z: -19.921879}
  - {x: 20.137163, y: 8.806516, z: -19.921879}
  - {x: 20.137163, y: -1.5343618, z: -19.921879}
  - {x: 14.257168, y: 8.806516, z: -19.921879}
  - {x: 14.257168, y: -1.5343618, z: -19.921879}
  - {x: -6.4548373, y: 2.3566551, z: -19.921879}
  - {x: 8.993203, y: 2.3566551, z: -19.921879}
  - {x: -11.939235, y: 2.3566551, z: -19.921879}
  - {x: 3.7731261, y: 2.3566551, z: -19.921879}
  - {x: 20.137163, y: 2.3566551, z: -19.921879}
  - {x: 14.257168, y: 2.3566551, z: -19.921879}
  - {x: -1.5323329, y: 8.806516, z: -19.921879}
  - {x: -1.5323329, y: -1.5343618, z: -19.921879}
  - {x: -1.5323329, y: 2.3566551, z: -19.921879}
  - {x: -6.4548373, y: 8.806516, z: -16.06502}
  - {x: -6.4548373, y: -1.5343618, z: -16.06502}
  - {x: 8.993203, y: 8.806516, z: -16.06502}
  - {x: 8.993203, y: -1.5343618, z: -16.06502}
  - {x: -11.939235, y: 8.806516, z: -16.06502}
  - {x: -11.939235, y: -1.5343618, z: -16.06502}
  - {x: 3.7731261, y: 8.806516, z: -16.06502}
  - {x: 3.7731261, y: -1.5343618, z: -16.06502}
  - {x: 20.137163, y: 8.806516, z: -16.06502}
  - {x: 20.137163, y: -1.5343618, z: -16.06502}
  - {x: 14.257168, y: 8.806516, z: -16.06502}
  - {x: 14.257168, y: -1.5343618, z: -16.06502}
  - {x: -6.4548373, y: 2.3566551, z: -16.06502}
  - {x: 8.993203, y: 2.3566551, z: -16.06502}
  - {x: -11.939235, y: 2.3566551, z: -16.06502}
  - {x: 3.7731261, y: 2.3566551, z: -16.06502}
  - {x: 20.137163, y: 2.3566551, z: -16.06502}
  - {x: 14.257168, y: 2.3566551, z: -16.06502}
  - {x: -1.5323329, y: 8.806516, z: -16.06502}
  - {x: -1.5323329, y: -1.5343618, z: -16.06502}
  - {x: -1.5323329, y: 2.3566551, z: -16.06502}
  - {x: -6.4548373, y: 8.806516, z: -12.3070545}
  - {x: -6.4548373, y: -1.5343618, z: -12.3070545}
  - {x: 8.993203, y: 8.806516, z: -12.3070545}
  - {x: 8.993203, y: -1.1842765, z: -13.780704}
  - {x: -11.939235, y: 8.806516, z: -12.3070545}
  - {x: -11.939235, y: -1.5343618, z: -12.3070545}
  - {x: 3.7731261, y: 8.806516, z: -12.3070545}
  - {x: 6.021616, y: 0.8727715, z: -13.780704}
  - {x: 20.137163, y: 8.806516, z: -12.3070545}
  - {x: 20.137163, y: -1.5343618, z: -12.3070545}
  - {x: 14.257168, y: 8.806516, z: -12.3070545}
  - {x: 14.257168, y: -1.1973814, z: -12.3070545}
  - {x: -6.4548373, y: 2.3566551, z: -12.3070545}
  - {x: 1.6883464, y: 2.7763042, z: -6.8005238}
  - {x: -11.939235, y: 2.3566551, z: -12.3070545}
  - {x: 3.7731261, y: 4.7772913, z: -12.3070545}
  - {x: 20.137163, y: 2.3566551, z: -12.3070545}
  - {x: 14.257168, y: 2.3566551, z: -12.3070545}
  - {x: -1.5323329, y: 8.806516, z: -12.3070545}
  - {x: -1.5323329, y: -1.5343618, z: -12.3070545}
  - {x: -1.5323329, y: 2.3566551, z: -12.3070545}
  - {x: -6.4548373, y: 8.806516, z: -8.796325}
  - {x: -6.4548373, y: -1.5343618, z: -8.796325}
  - {x: 8.993203, y: 8.806516, z: -8.796325}
  - {x: 8.993203, y: -1.1842765, z: -8.796325}
  - {x: -11.939235, y: 8.806516, z: -8.796325}
  - {x: -11.939235, y: -1.5343618, z: -8.796325}
  - {x: 3.7731261, y: 8.806516, z: -8.796325}
  - {x: 6.021616, y: 0.8727715, z: -8.796325}
  - {x: 20.137163, y: 8.806516, z: -8.796325}
  - {x: 20.137163, y: -1.5343618, z: -8.796325}
  - {x: 14.257168, y: 8.806516, z: -8.796325}
  - {x: 14.257168, y: -1.1973814, z: -8.796325}
  - {x: -6.4548373, y: 2.3566551, z: -8.796325}
  - {x: 6.695057, y: 2.3566551, z: -8.796325}
  - {x: -11.939235, y: 2.3566551, z: -8.796325}
  - {x: 3.7731261, y: 2.3566551, z: -8.796325}
  - {x: 20.137163, y: 2.3566551, z: -8.796325}
  - {x: 14.257168, y: 2.3566551, z: -8.796325}
  - {x: -1.5323329, y: 8.806516, z: -8.796325}
  - {x: 1.6580772, y: 1.1665359, z: -8.796325}
  - {x: -1.5323329, y: 2.3566551, z: -8.796325}
  - {x: -6.4548373, y: 8.806516, z: -4.8405704}
  - {x: -6.4548373, y: -1.5343618, z: -4.8405704}
  - {x: 8.993203, y: 8.806516, z: -4.8405704}
  - {x: 9.349902, y: -1.2554649, z: -1.9392796}
  - {x: -11.939235, y: 8.806516, z: -4.8405704}
  - {x: -11.939235, y: -1.5343618, z: -4.8405704}
  - {x: 3.7731261, y: 8.806516, z: -4.8405704}
  - {x: 3.7731261, y: -1.5343618, z: -4.8405704}
  - {x: 20.137163, y: 8.806516, z: -4.8405704}
  - {x: 20.137163, y: -1.5343618, z: -4.8405704}
  - {x: 14.257168, y: 8.806516, z: -4.8405704}
  - {x: 10.899697, y: -1.2109127, z: -10.787819}
  - {x: -6.4548373, y: 2.3566551, z: -4.8405704}
  - {x: 6.930959, y: 3.292191, z: -5.2275963}
  - {x: -11.939235, y: 2.3566551, z: -4.8405704}
  - {x: 3.7731261, y: 2.3566551, z: -4.8405704}
  - {x: 20.137163, y: 2.3566551, z: -4.8405704}
  - {x: 14.257168, y: 2.3566551, z: -4.8405704}
  - {x: -1.5323329, y: 8.806516, z: -4.8405704}
  - {x: 1.6580772, y: 1.1665359, z: -4.8405704}
  - {x: -1.5323329, y: 2.3566551, z: -4.8405704}
  - {x: -6.4548373, y: 8.806516, z: -0.7364769}
  - {x: -6.4548373, y: -1.5343618, z: -0.7364769}
  - {x: 8.993203, y: 8.806516, z: -0.7364769}
  - {x: 8.993203, y: -1.5343618, z: -0.7364769}
  - {x: -11.939235, y: 8.806516, z: -0.7364769}
  - {x: -11.939235, y: -1.5343618, z: -0.7364769}
  - {x: 3.7731261, y: 8.806516, z: -0.7364769}
  - {x: 3.7731261, y: -1.5343618, z: -0.7364769}
  - {x: 20.137163, y: 8.806516, z: -0.7364769}
  - {x: 20.137163, y: -1.5343618, z: -0.7364769}
  - {x: 14.257168, y: 8.806516, z: -0.7364769}
  - {x: 14.257168, y: -1.5343618, z: -0.7364769}
  - {x: -6.4548373, y: 2.3566551, z: -0.7364769}
  - {x: 8.993203, y: 2.3566551, z: -0.7364769}
  - {x: -11.939235, y: 2.3566551, z: -0.7364769}
  - {x: 3.7731261, y: 2.3566551, z: -0.7364769}
  - {x: 20.137163, y: 2.3566551, z: -0.7364769}
  - {x: 14.257168, y: 2.3566551, z: -0.7364769}
  - {x: -1.5323329, y: 8.806516, z: -0.7364769}
  - {x: -1.5323329, y: -1.5343618, z: -0.7364769}
  - {x: -1.5323329, y: 2.3566551, z: -0.7364769}
  - {x: -6.4548373, y: 8.806516, z: 2.972042}
  - {x: -6.4548373, y: -1.5343618, z: 2.972042}
  - {x: 8.993203, y: 8.806516, z: 2.972042}
  - {x: 8.993203, y: -1.5343618, z: 2.972042}
  - {x: -11.939235, y: 8.806516, z: 2.972042}
  - {x: -11.939235, y: -1.5343618, z: 2.972042}
  - {x: 3.7731261, y: 8.806516, z: 2.972042}
  - {x: 3.7731261, y: -1.5343618, z: 2.972042}
  - {x: 20.137163, y: 8.806516, z: 2.972042}
  - {x: 20.137163, y: -1.5343618, z: 2.972042}
  - {x: 14.257168, y: 8.806516, z: 2.972042}
  - {x: 14.257168, y: -1.5343618, z: 1.788044}
  - {x: -6.4548373, y: 2.3566551, z: 2.972042}
  - {x: 8.993203, y: 2.3566551, z: 2.972042}
  - {x: -11.939235, y: 2.3566551, z: 2.972042}
  - {x: 3.7731261, y: 2.3566551, z: 2.972042}
  - {x: 20.137163, y: 2.3566551, z: 2.972042}
  - {x: 14.257168, y: 2.3566551, z: 2.972042}
  - {x: -1.5323329, y: 8.806516, z: 2.972042}
  - {x: -1.5323329, y: -1.5343618, z: 2.972042}
  - {x: -1.5323329, y: 2.3566551, z: 2.972042}
  - {x: 3.7731261, y: 0.8727715, z: -13.780704}
  - {x: 3.7731261, y: 0.8727715, z: -8.796325}
  - {x: 6.021616, y: -1.5343618, z: -13.780704}
  - {x: 6.021616, y: -1.5343618, z: -8.796325}
  - {x: 3.7731261, y: -1.5343618, z: -8.796325}
  - {x: 3.7731261, y: -1.5343618, z: -13.780704}
  - {x: 8.993203, y: -1.1842765, z: -11.099201}
  - {x: 6.021616, y: -1.5343618, z: -11.099201}
  - {x: 3.7731261, y: -1.5343618, z: -11.099201}
  - {x: 3.7731261, y: 0.8727715, z: -11.099201}
  - {x: 6.021616, y: 0.8727715, z: -11.099201}
  - {x: 7.5302963, y: -1.5343618, z: -13.780704}
  - {x: 7.5302963, y: -1.5343618, z: -11.099201}
  - {x: 7.5302963, y: 0.8727715, z: -13.780704}
  - {x: 7.5302963, y: 0.8727715, z: -11.099201}
  - {x: 7.5302963, y: -1.5343618, z: -8.796325}
  - {x: 7.5302963, y: 0.8727715, z: -8.796325}
  - {x: 1.6580772, y: -1.5343618, z: -8.796325}
  - {x: 1.6580772, y: -1.5343618, z: -4.8405704}
  - {x: -2.8646894, y: 1.1665359, z: -8.796325}
  - {x: -2.8646894, y: 1.1665359, z: -4.8405704}
  - {x: -2.8646894, y: -1.5343618, z: -4.8405704}
  - {x: -2.8646894, y: -1.5343618, z: -8.796325}
  - {x: -0.6420018, y: 1.1665359, z: -8.796325}
  - {x: -0.6420018, y: 1.1665359, z: -4.8405704}
  - {x: -0.6420018, y: -1.5343618, z: -4.8405704}
  - {x: -0.6420018, y: -1.5343618, z: -8.796325}
  - {x: 5.4116697, y: 0.2312541, z: -3.227993}
  - {x: 5.4116697, y: -1.2554649, z: -1.9392796}
  - {x: 14.257168, y: -1.2109127, z: -4.8405704}
  - {x: 9.325397, y: 1.6076849, z: -5.8184357}
  - {x: 11.965946, y: -1.2109127, z: -5.8184357}
  - {x: 8.993203, y: 3.6047301, z: -12.3070545}
  - {x: 7.1518564, y: 5.7025332, z: -13.247855}
  - {x: 7.1518564, y: 2.7763042, z: -11.2319765}
  - {x: 8.993203, y: 2.3566551, z: -8.796325}
  m_Dering: 1
--- !u!1 &1028513131
GameObject:
  m_ObjectHideFlags: 0
  m_CorrespondingSourceObject: {fileID: 0}
  m_PrefabInstance: {fileID: 0}
  m_PrefabAsset: {fileID: 0}
  serializedVersion: 6
  m_Component:
  - component: {fileID: 1028513133}
  - component: {fileID: 1028513132}
  - component: {fileID: 1028513134}
  m_Layer: 0
  m_Name: Reflection Probe
  m_TagString: Untagged
  m_Icon: {fileID: 0}
  m_NavMeshLayer: 0
  m_StaticEditorFlags: 0
  m_IsActive: 1
--- !u!215 &1028513132
ReflectionProbe:
  m_ObjectHideFlags: 0
  m_CorrespondingSourceObject: {fileID: 0}
  m_PrefabInstance: {fileID: 0}
  m_PrefabAsset: {fileID: 0}
  m_GameObject: {fileID: 1028513131}
  m_Enabled: 1
  serializedVersion: 2
  m_Type: 0
  m_Mode: 2
  m_RefreshMode: 2
  m_TimeSlicingMode: 0
  m_Resolution: 128
  m_UpdateFrequency: 0
  m_BoxSize: {x: 40.607887, y: 19.86776, z: 37.433754}
  m_BoxOffset: {x: 0, y: 0, z: 0}
  m_NearClip: 0.3
  m_FarClip: 1000
  m_ShadowDistance: 100
  m_ClearFlags: 1
  m_BackGroundColor: {r: 0.19215687, g: 0.3019608, b: 0.4745098, a: 0}
  m_CullingMask:
    serializedVersion: 2
    m_Bits: 4294967295
  m_IntensityMultiplier: 1
  m_BlendDistance: 1
  m_HDR: 1
  m_BoxProjection: 0
  m_RenderDynamicObjects: 0
  m_UseOcclusionCulling: 1
  m_Importance: 1
  m_CustomBakedTexture: {fileID: 0}
--- !u!4 &1028513133
Transform:
  m_ObjectHideFlags: 0
  m_CorrespondingSourceObject: {fileID: 0}
  m_PrefabInstance: {fileID: 0}
  m_PrefabAsset: {fileID: 0}
  m_GameObject: {fileID: 1028513131}
  m_LocalRotation: {x: -0, y: -0, z: -0, w: 1}
  m_LocalPosition: {x: 3.9737587, y: 7.7070103, z: 13.435516}
  m_LocalScale: {x: 1, y: 1, z: 1}
  m_ConstrainProportionsScale: 0
  m_Children: []
  m_Father: {fileID: 2114283753834967213}
  m_RootOrder: 1
  m_LocalEulerAnglesHint: {x: 0, y: 0, z: 0}
--- !u!114 &1028513134
MonoBehaviour:
  m_ObjectHideFlags: 0
  m_CorrespondingSourceObject: {fileID: 0}
  m_PrefabInstance: {fileID: 0}
  m_PrefabAsset: {fileID: 0}
  m_GameObject: {fileID: 1028513131}
  m_Enabled: 1
  m_EditorHideFlags: 0
  m_Script: {fileID: 11500000, guid: d0ef8dc2c2eabfa4e8cb77be57a837c0, type: 3}
  m_Name: 
  m_EditorClassIdentifier: 
  m_ProbeSettings:
    frustum:
      fieldOfViewMode: 1
      fixedValue: 90
      automaticScale: 1
      viewerScale: 1
    type: 0
    mode: 0
    realtimeMode: 1
    lighting:
      multiplier: 1
      weight: 1
      lightLayer: 1
      fadeDistance: 10000
      rangeCompressionFactor: 1
    influence:
      m_Shape: 0
      m_BoxSize: {x: 40.607887, y: 19.86776, z: 37.433754}
      m_BoxBlendDistancePositive: {x: 1, y: 1, z: 1}
      m_BoxBlendDistanceNegative: {x: 1, y: 1, z: 1}
      m_BoxBlendNormalDistancePositive: {x: 0, y: 0, z: 0}
      m_BoxBlendNormalDistanceNegative: {x: 0, y: 0, z: 0}
      m_BoxSideFadePositive: {x: 1, y: 1, z: 1}
      m_BoxSideFadeNegative: {x: 1, y: 1, z: 1}
      m_SphereRadius: 3
      m_SphereBlendDistance: 0
      m_SphereBlendNormalDistance: 0
      m_EditorAdvancedModeBlendDistancePositive: {x: 0, y: 0, z: 0}
      m_EditorAdvancedModeBlendDistanceNegative: {x: 0, y: 0, z: 0}
      m_EditorSimplifiedModeBlendDistance: 0
      m_EditorAdvancedModeBlendNormalDistancePositive: {x: 0, y: 0, z: 0}
      m_EditorAdvancedModeBlendNormalDistanceNegative: {x: 0, y: 0, z: 0}
      m_EditorSimplifiedModeBlendNormalDistance: 0
      m_EditorAdvancedModeEnabled: 0
      m_EditorAdvancedModeFaceFadePositive: {x: 1, y: 1, z: 1}
      m_EditorAdvancedModeFaceFadeNegative: {x: 1, y: 1, z: 1}
      m_Version: 1
      m_ObsoleteSphereBaseOffset: {x: 0, y: 0, z: 0}
      m_ObsoleteOffset: {x: 2.4737587, y: -4.2929897, z: 3.4355164}
    proxy:
      m_Shape: 0
      m_BoxSize: {x: 1, y: 1, z: 1}
      m_SphereRadius: 1
      m_CSVersion: 2
      m_ObsoleteSphereInfiniteProjection: 0
      m_ObsoleteBoxInfiniteProjection: 0
    proxySettings:
      useInfluenceVolumeAsProxyVolume: 1
      capturePositionProxySpace: {x: -2.4737587, y: 4.2929897, z: -3.4355164}
      captureRotationProxySpace: {x: 0, y: 0, z: 0, w: 1}
      mirrorPositionProxySpace: {x: 0, y: 0, z: 0}
      mirrorRotationProxySpace: {x: 0, y: 0, z: 0, w: 0}
    resolutionScalable:
      m_Override: 512
      m_UseOverride: 0
      m_Level: 0
    resolution: 0
    cameraSettings:
      customRenderingSettings: 0
      renderingPathCustomFrameSettings:
        bitDatas:
          data1: 72198260625768269
          data2: 13763000477350330392
        lodBias: 1
        lodBiasMode: 0
        lodBiasQualityLevel: 0
        maximumLODLevel: 0
        maximumLODLevelMode: 0
        maximumLODLevelQualityLevel: 0
        sssQualityMode: 0
        sssQualityLevel: 0
        sssCustomSampleBudget: 20
        msaaMode: 1
        materialQuality: 0
      renderingPathCustomFrameSettingsOverrideMask:
        mask:
          data1: 0
          data2: 0
      bufferClearing:
        clearColorMode: 0
        backgroundColorHDR: {r: 0.023529412, g: 0.07058824, b: 0.1882353, a: 0}
        clearDepth: 1
      volumes:
        layerMask:
          serializedVersion: 2
          m_Bits: 1
        anchorOverride: {fileID: 0}
      frustum:
        mode: 0
        aspect: 1
        farClipPlaneRaw: 1000
        nearClipPlaneRaw: 0.3
        fieldOfView: 90
        projectionMatrix:
          e00: 1
          e01: 0
          e02: 0
          e03: 0
          e10: 0
          e11: 1
          e12: 0
          e13: 0
          e20: 0
          e21: 0
          e22: 1
          e23: 0
          e30: 0
          e31: 0
          e32: 0
          e33: 1
      culling:
        useOcclusionCulling: 1
        cullingMask:
          serializedVersion: 2
          m_Bits: 4294967295
        sceneCullingMaskOverride: 0
      invertFaceCulling: 0
      flipYMode: 0
      probeLayerMask:
        serializedVersion: 2
        m_Bits: 4294967295
      defaultFrameSettings: 0
      m_ObsoleteRenderingPath: 0
      m_ObsoleteFrameSettings:
        overrides: 0
        enableShadow: 0
        enableContactShadows: 0
        enableShadowMask: 0
        enableSSR: 0
        enableSSAO: 0
        enableSubsurfaceScattering: 0
        enableTransmission: 0
        enableAtmosphericScattering: 0
        enableVolumetrics: 0
        enableReprojectionForVolumetrics: 0
        enableLightLayers: 0
        enableExposureControl: 1
        diffuseGlobalDimmer: 0
        specularGlobalDimmer: 0
        shaderLitMode: 0
        enableDepthPrepassWithDeferredRendering: 0
        enableTransparentPrepass: 0
        enableMotionVectors: 0
        enableObjectMotionVectors: 0
        enableDecals: 0
        enableRoughRefraction: 0
        enableTransparentPostpass: 0
        enableDistortion: 0
        enablePostprocess: 0
        enableOpaqueObjects: 0
        enableTransparentObjects: 0
        enableRealtimePlanarReflection: 0
        enableMSAA: 0
        enableAsyncCompute: 0
        runLightListAsync: 0
        runSSRAsync: 0
        runSSAOAsync: 0
        runContactShadowsAsync: 0
        runVolumeVoxelizationAsync: 0
        lightLoopSettings:
          overrides: 0
          enableDeferredTileAndCluster: 0
          enableComputeLightEvaluation: 0
          enableComputeLightVariants: 0
          enableComputeMaterialVariants: 0
          enableFptlForForwardOpaque: 0
          enableBigTilePrepass: 0
          isFptlEnabled: 0
    roughReflections: 1
    distanceBasedRoughness: 0
  m_ProbeSettingsOverride:
    probe: 0
    camera:
      camera: 0
  m_ProxyVolume: {fileID: 0}
  m_BakedTexture: {fileID: 8900000, guid: 1b8a4de7469ad774c80dd6678d94e6b9, type: 3}
  m_CustomTexture: {fileID: 0}
  m_BakedRenderData:
    m_WorldToCameraRHS:
      e00: 0
      e01: 0
      e02: 0
      e03: 0
      e10: 0
      e11: 0
      e12: 0
      e13: 0
      e20: 0
      e21: 0
      e22: 0
      e23: 0
      e30: 0
      e31: 0
      e32: 0
      e33: 0
    m_ProjectionMatrix:
      e00: 0
      e01: 0
      e02: 0
      e03: 0
      e10: 0
      e11: 0
      e12: 0
      e13: 0
      e20: 0
      e21: 0
      e22: 0
      e23: 0
      e30: 0
      e31: 0
      e32: 0
      e33: 0
    m_CapturePosition: {x: 0, y: 0, z: 0}
    m_CaptureRotation: {x: 0, y: 0, z: 0, w: 0}
    m_FieldOfView: 0
    m_Aspect: 0
  m_CustomRenderData:
    m_WorldToCameraRHS:
      e00: 0
      e01: 0
      e02: 0
      e03: 0
      e10: 0
      e11: 0
      e12: 0
      e13: 0
      e20: 0
      e21: 0
      e22: 0
      e23: 0
      e30: 0
      e31: 0
      e32: 0
      e33: 0
    m_ProjectionMatrix:
      e00: 0
      e01: 0
      e02: 0
      e03: 0
      e10: 0
      e11: 0
      e12: 0
      e13: 0
      e20: 0
      e21: 0
      e22: 0
      e23: 0
      e30: 0
      e31: 0
      e32: 0
      e33: 0
    m_CapturePosition: {x: 0, y: 0, z: 0}
    m_CaptureRotation: {x: 0, y: 0, z: 0, w: 0}
    m_FieldOfView: 0
    m_Aspect: 0
  m_SHForNormalization:
    sh[ 0]: 0
    sh[ 1]: 0
    sh[ 2]: 0
    sh[ 3]: 0
    sh[ 4]: 0
    sh[ 5]: 0
    sh[ 6]: 0
    sh[ 7]: 0
    sh[ 8]: 0
    sh[ 9]: 0
    sh[10]: 0
    sh[11]: 0
    sh[12]: 0
    sh[13]: 0
    sh[14]: 0
    sh[15]: 0
    sh[16]: 0
    sh[17]: 0
    sh[18]: 0
    sh[19]: 0
    sh[20]: 0
    sh[21]: 0
    sh[22]: 0
    sh[23]: 0
    sh[24]: 0
    sh[25]: 0
    sh[26]: 0
  m_HasValidSHForNormalization: 0
  m_HDProbeVersion: 3
  m_ObsoleteInfiniteProjection: 0
  m_ObsoleteInfluenceVolume:
    m_Shape: 0
    m_BoxSize: {x: 40.607887, y: 19.86776, z: 37.433754}
    m_BoxBlendDistancePositive: {x: 1, y: 1, z: 1}
    m_BoxBlendDistanceNegative: {x: 1, y: 1, z: 1}
    m_BoxBlendNormalDistancePositive: {x: 0, y: 0, z: 0}
    m_BoxBlendNormalDistanceNegative: {x: 0, y: 0, z: 0}
    m_BoxSideFadePositive: {x: 1, y: 1, z: 1}
    m_BoxSideFadeNegative: {x: 1, y: 1, z: 1}
    m_SphereRadius: 3
    m_SphereBlendDistance: 0
    m_SphereBlendNormalDistance: 0
    m_EditorAdvancedModeBlendDistancePositive: {x: 0, y: 0, z: 0}
    m_EditorAdvancedModeBlendDistanceNegative: {x: 0, y: 0, z: 0}
    m_EditorSimplifiedModeBlendDistance: 0
    m_EditorAdvancedModeBlendNormalDistancePositive: {x: 0, y: 0, z: 0}
    m_EditorAdvancedModeBlendNormalDistanceNegative: {x: 0, y: 0, z: 0}
    m_EditorSimplifiedModeBlendNormalDistance: 0
    m_EditorAdvancedModeEnabled: 0
    m_EditorAdvancedModeFaceFadePositive: {x: 1, y: 1, z: 1}
    m_EditorAdvancedModeFaceFadeNegative: {x: 1, y: 1, z: 1}
    m_Version: 1
    m_ObsoleteSphereBaseOffset: {x: 0, y: 0, z: 0}
    m_ObsoleteOffset: {x: 2.4737587, y: -4.2929897, z: 3.4355164}
  m_ObsoleteFrameSettings:
    overrides: 0
    enableShadow: 0
    enableContactShadows: 0
    enableShadowMask: 0
    enableSSR: 0
    enableSSAO: 0
    enableSubsurfaceScattering: 0
    enableTransmission: 0
    enableAtmosphericScattering: 0
    enableVolumetrics: 0
    enableReprojectionForVolumetrics: 0
    enableLightLayers: 0
    enableExposureControl: 1
    diffuseGlobalDimmer: 0
    specularGlobalDimmer: 0
    shaderLitMode: 0
    enableDepthPrepassWithDeferredRendering: 0
    enableTransparentPrepass: 0
    enableMotionVectors: 0
    enableObjectMotionVectors: 0
    enableDecals: 0
    enableRoughRefraction: 0
    enableTransparentPostpass: 0
    enableDistortion: 0
    enablePostprocess: 0
    enableOpaqueObjects: 0
    enableTransparentObjects: 0
    enableRealtimePlanarReflection: 0
    enableMSAA: 0
    enableAsyncCompute: 0
    runLightListAsync: 0
    runSSRAsync: 0
    runSSAOAsync: 0
    runContactShadowsAsync: 0
    runVolumeVoxelizationAsync: 0
    lightLoopSettings:
      overrides: 0
      enableDeferredTileAndCluster: 0
      enableComputeLightEvaluation: 0
      enableComputeLightVariants: 0
      enableComputeMaterialVariants: 0
      enableFptlForForwardOpaque: 0
      enableBigTilePrepass: 0
      isFptlEnabled: 0
  m_ObsoleteMultiplier: 1
  m_ObsoleteWeight: 1
  m_ObsoleteMode: 0
  m_ObsoleteLightLayers: 1
  m_ObsoleteCaptureSettings:
    overrides: 0
    clearColorMode: 0
    backgroundColorHDR: {r: 0.023529412, g: 0.07058824, b: 0.1882353, a: 0}
    clearDepth: 1
    cullingMask:
      serializedVersion: 2
      m_Bits: 4294967295
    useOcclusionCulling: 1
    volumeLayerMask:
      serializedVersion: 2
      m_Bits: 1
    volumeAnchorOverride: {fileID: 0}
    projection: 0
    nearClipPlane: 0.3
    farClipPlane: 1000
    fieldOfView: 90
    orthographicSize: 5
    renderingPath: 0
    shadowDistance: 100
  m_ReflectionProbeVersion: 9
  m_ObsoleteInfluenceShape: 0
  m_ObsoleteInfluenceSphereRadius: 3
  m_ObsoleteBlendDistancePositive: {x: 1, y: 1, z: 1}
  m_ObsoleteBlendDistanceNegative: {x: 1, y: 1, z: 1}
  m_ObsoleteBlendNormalDistancePositive: {x: 0, y: 0, z: 0}
  m_ObsoleteBlendNormalDistanceNegative: {x: 0, y: 0, z: 0}
  m_ObsoleteBoxSideFadePositive: {x: 1, y: 1, z: 1}
  m_ObsoleteBoxSideFadeNegative: {x: 1, y: 1, z: 1}
--- !u!1001 &1221041499
PrefabInstance:
  m_ObjectHideFlags: 0
  serializedVersion: 2
  m_Modification:
    m_TransformParent: {fileID: 0}
    m_Modifications:
    - target: {fileID: 8944336655422409496, guid: f6d148d888ffbf54b9afe9936dfaec1f, type: 3}
      propertyPath: far clip plane
      value: 500
      objectReference: {fileID: 0}
    - target: {fileID: 8944336655422409496, guid: f6d148d888ffbf54b9afe9936dfaec1f, type: 3}
      propertyPath: orthographic size
      value: 10
      objectReference: {fileID: 0}
    - target: {fileID: 8944336655422409498, guid: f6d148d888ffbf54b9afe9936dfaec1f, type: 3}
      propertyPath: m_Name
      value: MainCamera
      objectReference: {fileID: 0}
    - target: {fileID: 8944336655422409503, guid: f6d148d888ffbf54b9afe9936dfaec1f, type: 3}
      propertyPath: m_RootOrder
      value: 2
      objectReference: {fileID: 0}
    - target: {fileID: 8944336655422409503, guid: f6d148d888ffbf54b9afe9936dfaec1f, type: 3}
      propertyPath: m_LocalPosition.x
      value: 0.20000005
      objectReference: {fileID: 0}
    - target: {fileID: 8944336655422409503, guid: f6d148d888ffbf54b9afe9936dfaec1f, type: 3}
      propertyPath: m_LocalPosition.y
      value: 1.375
      objectReference: {fileID: 0}
    - target: {fileID: 8944336655422409503, guid: f6d148d888ffbf54b9afe9936dfaec1f, type: 3}
      propertyPath: m_LocalPosition.z
      value: -4
      objectReference: {fileID: 0}
    - target: {fileID: 8944336655422409503, guid: f6d148d888ffbf54b9afe9936dfaec1f, type: 3}
      propertyPath: m_LocalRotation.w
      value: 1
      objectReference: {fileID: 0}
    - target: {fileID: 8944336655422409503, guid: f6d148d888ffbf54b9afe9936dfaec1f, type: 3}
      propertyPath: m_LocalRotation.x
      value: 0
      objectReference: {fileID: 0}
    - target: {fileID: 8944336655422409503, guid: f6d148d888ffbf54b9afe9936dfaec1f, type: 3}
      propertyPath: m_LocalRotation.y
      value: 0
      objectReference: {fileID: 0}
    - target: {fileID: 8944336655422409503, guid: f6d148d888ffbf54b9afe9936dfaec1f, type: 3}
      propertyPath: m_LocalRotation.z
      value: 0
      objectReference: {fileID: 0}
    - target: {fileID: 8944336655422409503, guid: f6d148d888ffbf54b9afe9936dfaec1f, type: 3}
      propertyPath: m_LocalEulerAnglesHint.x
      value: 0
      objectReference: {fileID: 0}
    - target: {fileID: 8944336655422409503, guid: f6d148d888ffbf54b9afe9936dfaec1f, type: 3}
      propertyPath: m_LocalEulerAnglesHint.y
      value: 0
      objectReference: {fileID: 0}
    - target: {fileID: 8944336655422409503, guid: f6d148d888ffbf54b9afe9936dfaec1f, type: 3}
      propertyPath: m_LocalEulerAnglesHint.z
      value: 0
      objectReference: {fileID: 0}
    m_RemovedComponents: []
  m_SourcePrefab: {fileID: 100100000, guid: f6d148d888ffbf54b9afe9936dfaec1f, type: 3}
--- !u!1001 &1402827283
PrefabInstance:
  m_ObjectHideFlags: 0
  serializedVersion: 2
  m_Modification:
    m_TransformParent: {fileID: 0}
    m_Modifications:
    - target: {fileID: 2070925441746177671, guid: a1a802ecaf6775746bb2a929fb554ad8, type: 3}
      propertyPath: m_Name
      value: PlayerFollowCamera
      objectReference: {fileID: 0}
    - target: {fileID: 2070925441746177912, guid: a1a802ecaf6775746bb2a929fb554ad8, type: 3}
      propertyPath: m_RootOrder
      value: 3
      objectReference: {fileID: 0}
    - target: {fileID: 2070925441746177912, guid: a1a802ecaf6775746bb2a929fb554ad8, type: 3}
      propertyPath: m_LocalPosition.x
      value: 0.20000005
      objectReference: {fileID: 0}
    - target: {fileID: 2070925441746177912, guid: a1a802ecaf6775746bb2a929fb554ad8, type: 3}
      propertyPath: m_LocalPosition.y
      value: 1.375
      objectReference: {fileID: 0}
    - target: {fileID: 2070925441746177912, guid: a1a802ecaf6775746bb2a929fb554ad8, type: 3}
      propertyPath: m_LocalPosition.z
      value: -4
      objectReference: {fileID: 0}
    - target: {fileID: 2070925441746177912, guid: a1a802ecaf6775746bb2a929fb554ad8, type: 3}
      propertyPath: m_LocalRotation.w
      value: 1
      objectReference: {fileID: 0}
    - target: {fileID: 2070925441746177912, guid: a1a802ecaf6775746bb2a929fb554ad8, type: 3}
      propertyPath: m_LocalRotation.x
      value: -0
      objectReference: {fileID: 0}
    - target: {fileID: 2070925441746177912, guid: a1a802ecaf6775746bb2a929fb554ad8, type: 3}
      propertyPath: m_LocalRotation.y
      value: -0
      objectReference: {fileID: 0}
    - target: {fileID: 2070925441746177912, guid: a1a802ecaf6775746bb2a929fb554ad8, type: 3}
      propertyPath: m_LocalRotation.z
      value: -0
      objectReference: {fileID: 0}
    - target: {fileID: 2070925441746177912, guid: a1a802ecaf6775746bb2a929fb554ad8, type: 3}
      propertyPath: m_LocalEulerAnglesHint.x
      value: 0
      objectReference: {fileID: 0}
    - target: {fileID: 2070925441746177912, guid: a1a802ecaf6775746bb2a929fb554ad8, type: 3}
      propertyPath: m_LocalEulerAnglesHint.y
      value: 0
      objectReference: {fileID: 0}
    - target: {fileID: 2070925441746177912, guid: a1a802ecaf6775746bb2a929fb554ad8, type: 3}
      propertyPath: m_LocalEulerAnglesHint.z
      value: 0
      objectReference: {fileID: 0}
    - target: {fileID: 2070925441746177913, guid: a1a802ecaf6775746bb2a929fb554ad8, type: 3}
      propertyPath: m_Follow
      value: 
      objectReference: {fileID: 700051398}
    m_RemovedComponents: []
  m_SourcePrefab: {fileID: 100100000, guid: a1a802ecaf6775746bb2a929fb554ad8, type: 3}
--- !u!1001 &1762682258
PrefabInstance:
  m_ObjectHideFlags: 0
  serializedVersion: 2
  m_Modification:
    m_TransformParent: {fileID: 0}
    m_Modifications:
    - target: {fileID: 3893294197879345259, guid: 64dce48905ffd9b4293e595fa6941544, type: 3}
      propertyPath: m_RootOrder
      value: 4
      objectReference: {fileID: 0}
    - target: {fileID: 3893294197879345259, guid: 64dce48905ffd9b4293e595fa6941544, type: 3}
      propertyPath: m_LocalPosition.x
      value: 0
      objectReference: {fileID: 0}
    - target: {fileID: 3893294197879345259, guid: 64dce48905ffd9b4293e595fa6941544, type: 3}
      propertyPath: m_LocalPosition.y
      value: 0
      objectReference: {fileID: 0}
    - target: {fileID: 3893294197879345259, guid: 64dce48905ffd9b4293e595fa6941544, type: 3}
      propertyPath: m_LocalPosition.z
      value: 0
      objectReference: {fileID: 0}
    - target: {fileID: 3893294197879345259, guid: 64dce48905ffd9b4293e595fa6941544, type: 3}
      propertyPath: m_LocalRotation.w
      value: 1
      objectReference: {fileID: 0}
    - target: {fileID: 3893294197879345259, guid: 64dce48905ffd9b4293e595fa6941544, type: 3}
      propertyPath: m_LocalRotation.x
      value: -0
      objectReference: {fileID: 0}
    - target: {fileID: 3893294197879345259, guid: 64dce48905ffd9b4293e595fa6941544, type: 3}
      propertyPath: m_LocalRotation.y
      value: -0
      objectReference: {fileID: 0}
    - target: {fileID: 3893294197879345259, guid: 64dce48905ffd9b4293e595fa6941544, type: 3}
      propertyPath: m_LocalRotation.z
      value: -0
      objectReference: {fileID: 0}
    - target: {fileID: 3893294197879345259, guid: 64dce48905ffd9b4293e595fa6941544, type: 3}
      propertyPath: m_LocalEulerAnglesHint.x
      value: 0
      objectReference: {fileID: 0}
    - target: {fileID: 3893294197879345259, guid: 64dce48905ffd9b4293e595fa6941544, type: 3}
      propertyPath: m_LocalEulerAnglesHint.y
      value: 0
      objectReference: {fileID: 0}
    - target: {fileID: 3893294197879345259, guid: 64dce48905ffd9b4293e595fa6941544, type: 3}
      propertyPath: m_LocalEulerAnglesHint.z
      value: 0
      objectReference: {fileID: 0}
    - target: {fileID: 4416926081852918481, guid: 64dce48905ffd9b4293e595fa6941544, type: 3}
      propertyPath: m_Name
      value: PlayerArmature
      objectReference: {fileID: 0}
    m_RemovedComponents: []
  m_SourcePrefab: {fileID: 100100000, guid: 64dce48905ffd9b4293e595fa6941544, type: 3}
--- !u!114 &1762682259 stripped
MonoBehaviour:
  m_CorrespondingSourceObject: {fileID: 135756642000475821, guid: 64dce48905ffd9b4293e595fa6941544, type: 3}
  m_PrefabInstance: {fileID: 1762682258}
  m_PrefabAsset: {fileID: 0}
  m_GameObject: {fileID: 0}
  m_Enabled: 1
  m_EditorHideFlags: 0
  m_Script: {fileID: 11500000, guid: e087ecce43ebbff45a1b360637807d93, type: 3}
  m_Name: 
  m_EditorClassIdentifier: 
--- !u!114 &1762682260 stripped
MonoBehaviour:
  m_CorrespondingSourceObject: {fileID: 4416926081852918493, guid: 64dce48905ffd9b4293e595fa6941544, type: 3}
  m_PrefabInstance: {fileID: 1762682258}
  m_PrefabAsset: {fileID: 0}
  m_GameObject: {fileID: 0}
  m_Enabled: 1
  m_EditorHideFlags: 0
  m_Script: {fileID: 11500000, guid: 62899f850307741f2a39c98a8b639597, type: 3}
  m_Name: 
  m_EditorClassIdentifier: 
--- !u!1 &1764214107
GameObject:
  m_ObjectHideFlags: 0
  m_CorrespondingSourceObject: {fileID: 0}
  m_PrefabInstance: {fileID: 0}
  m_PrefabAsset: {fileID: 0}
  serializedVersion: 6
  m_Component:
  - component: {fileID: 1764214108}
  - component: {fileID: 1764214109}
  - component: {fileID: 1764214110}
  m_Layer: 0
  m_Name: Reflection Probe
  m_TagString: Untagged
  m_Icon: {fileID: 0}
  m_NavMeshLayer: 0
  m_StaticEditorFlags: 0
  m_IsActive: 1
--- !u!4 &1764214108
Transform:
  m_ObjectHideFlags: 0
  m_CorrespondingSourceObject: {fileID: 0}
  m_PrefabInstance: {fileID: 0}
  m_PrefabAsset: {fileID: 0}
  m_GameObject: {fileID: 1764214107}
  m_LocalRotation: {x: -0, y: -0, z: -0, w: 1}
  m_LocalPosition: {x: 0.84825164, y: 1.7575052, z: 14.831091}
  m_LocalScale: {x: 1, y: 1, z: 1}
  m_ConstrainProportionsScale: 0
  m_Children: []
  m_Father: {fileID: 2114283753834967213}
  m_RootOrder: 2
  m_LocalEulerAnglesHint: {x: 0, y: 0, z: 0}
--- !u!215 &1764214109
ReflectionProbe:
  m_ObjectHideFlags: 0
  m_CorrespondingSourceObject: {fileID: 0}
  m_PrefabInstance: {fileID: 0}
  m_PrefabAsset: {fileID: 0}
  m_GameObject: {fileID: 1764214107}
  m_Enabled: 1
  serializedVersion: 2
  m_Type: 0
  m_Mode: 2
  m_RefreshMode: 2
  m_TimeSlicingMode: 0
  m_Resolution: 128
  m_UpdateFrequency: 0
  m_BoxSize: {x: 8.880261, y: 3.6585498, z: 4.8670416}
  m_BoxOffset: {x: 0, y: 0, z: 0}
  m_NearClip: 0.3
  m_FarClip: 1000
  m_ShadowDistance: 100
  m_ClearFlags: 1
  m_BackGroundColor: {r: 0.19215687, g: 0.3019608, b: 0.4745098, a: 0}
  m_CullingMask:
    serializedVersion: 2
    m_Bits: 4294967295
  m_IntensityMultiplier: 1
  m_BlendDistance: 1
  m_HDR: 1
  m_BoxProjection: 0
  m_RenderDynamicObjects: 0
  m_UseOcclusionCulling: 1
  m_Importance: 1
  m_CustomBakedTexture: {fileID: 0}
--- !u!114 &1764214110
MonoBehaviour:
  m_ObjectHideFlags: 0
  m_CorrespondingSourceObject: {fileID: 0}
  m_PrefabInstance: {fileID: 0}
  m_PrefabAsset: {fileID: 0}
  m_GameObject: {fileID: 1764214107}
  m_Enabled: 1
  m_EditorHideFlags: 0
  m_Script: {fileID: 11500000, guid: d0ef8dc2c2eabfa4e8cb77be57a837c0, type: 3}
  m_Name: 
  m_EditorClassIdentifier: 
  m_ProbeSettings:
    frustum:
      fieldOfViewMode: 1
      fixedValue: 90
      automaticScale: 1
      viewerScale: 1
    type: 0
    mode: 0
    realtimeMode: 1
    lighting:
      multiplier: 1
      weight: 1
      lightLayer: 1
      fadeDistance: 10000
      rangeCompressionFactor: 1
    influence:
      m_Shape: 0
      m_BoxSize: {x: 8.880261, y: 3.6585498, z: 4.8670416}
      m_BoxBlendDistancePositive: {x: 1, y: 1, z: 1}
      m_BoxBlendDistanceNegative: {x: 1, y: 1, z: 1}
      m_BoxBlendNormalDistancePositive: {x: 0, y: 0, z: 0}
      m_BoxBlendNormalDistanceNegative: {x: 0, y: 0, z: 0}
      m_BoxSideFadePositive: {x: 1, y: 1, z: 1}
      m_BoxSideFadeNegative: {x: 1, y: 1, z: 1}
      m_SphereRadius: 3
      m_SphereBlendDistance: 0
      m_SphereBlendNormalDistance: 0
      m_EditorAdvancedModeBlendDistancePositive: {x: 0, y: 0, z: 0}
      m_EditorAdvancedModeBlendDistanceNegative: {x: 0, y: 0, z: 0}
      m_EditorSimplifiedModeBlendDistance: 0
      m_EditorAdvancedModeBlendNormalDistancePositive: {x: 0, y: 0, z: 0}
      m_EditorAdvancedModeBlendNormalDistanceNegative: {x: 0, y: 0, z: 0}
      m_EditorSimplifiedModeBlendNormalDistance: 0
      m_EditorAdvancedModeEnabled: 0
      m_EditorAdvancedModeFaceFadePositive: {x: 1, y: 1, z: 1}
      m_EditorAdvancedModeFaceFadeNegative: {x: 1, y: 1, z: 1}
      m_Version: 1
      m_ObsoleteSphereBaseOffset: {x: 0, y: 0, z: 0}
      m_ObsoleteOffset: {x: -0.11674833, y: 0.1915052, z: -0.35990858}
    proxy:
      m_Shape: 0
      m_BoxSize: {x: 1, y: 1, z: 1}
      m_SphereRadius: 1
      m_CSVersion: 2
      m_ObsoleteSphereInfiniteProjection: 0
      m_ObsoleteBoxInfiniteProjection: 0
    proxySettings:
      useInfluenceVolumeAsProxyVolume: 0
      capturePositionProxySpace: {x: 0.11674833, y: -0.1915052, z: 0.35990906}
      captureRotationProxySpace: {x: 0, y: 0, z: 0, w: 1}
      mirrorPositionProxySpace: {x: 0, y: 0, z: 0}
      mirrorRotationProxySpace: {x: 0, y: 0, z: 0, w: 0}
    resolutionScalable:
      m_Override: 512
      m_UseOverride: 0
      m_Level: 0
    resolution: 0
    cameraSettings:
      customRenderingSettings: 0
      renderingPathCustomFrameSettings:
        bitDatas:
          data1: 72198260625768269
          data2: 13763000477350330392
        lodBias: 1
        lodBiasMode: 0
        lodBiasQualityLevel: 0
        maximumLODLevel: 0
        maximumLODLevelMode: 0
        maximumLODLevelQualityLevel: 0
        sssQualityMode: 0
        sssQualityLevel: 0
        sssCustomSampleBudget: 20
        msaaMode: 1
        materialQuality: 0
      renderingPathCustomFrameSettingsOverrideMask:
        mask:
          data1: 0
          data2: 0
      bufferClearing:
        clearColorMode: 0
        backgroundColorHDR: {r: 0.023529412, g: 0.07058824, b: 0.1882353, a: 0}
        clearDepth: 1
      volumes:
        layerMask:
          serializedVersion: 2
          m_Bits: 1
        anchorOverride: {fileID: 0}
      frustum:
        mode: 0
        aspect: 1
        farClipPlaneRaw: 1000
        nearClipPlaneRaw: 0.3
        fieldOfView: 90
        projectionMatrix:
          e00: 1
          e01: 0
          e02: 0
          e03: 0
          e10: 0
          e11: 1
          e12: 0
          e13: 0
          e20: 0
          e21: 0
          e22: 1
          e23: 0
          e30: 0
          e31: 0
          e32: 0
          e33: 1
      culling:
        useOcclusionCulling: 1
        cullingMask:
          serializedVersion: 2
          m_Bits: 4294967295
        sceneCullingMaskOverride: 0
      invertFaceCulling: 0
      flipYMode: 0
      probeLayerMask:
        serializedVersion: 2
        m_Bits: 4294967295
      defaultFrameSettings: 0
      m_ObsoleteRenderingPath: 0
      m_ObsoleteFrameSettings:
        overrides: 0
        enableShadow: 0
        enableContactShadows: 0
        enableShadowMask: 0
        enableSSR: 0
        enableSSAO: 0
        enableSubsurfaceScattering: 0
        enableTransmission: 0
        enableAtmosphericScattering: 0
        enableVolumetrics: 0
        enableReprojectionForVolumetrics: 0
        enableLightLayers: 0
        enableExposureControl: 1
        diffuseGlobalDimmer: 0
        specularGlobalDimmer: 0
        shaderLitMode: 0
        enableDepthPrepassWithDeferredRendering: 0
        enableTransparentPrepass: 0
        enableMotionVectors: 0
        enableObjectMotionVectors: 0
        enableDecals: 0
        enableRoughRefraction: 0
        enableTransparentPostpass: 0
        enableDistortion: 0
        enablePostprocess: 0
        enableOpaqueObjects: 0
        enableTransparentObjects: 0
        enableRealtimePlanarReflection: 0
        enableMSAA: 0
        enableAsyncCompute: 0
        runLightListAsync: 0
        runSSRAsync: 0
        runSSAOAsync: 0
        runContactShadowsAsync: 0
        runVolumeVoxelizationAsync: 0
        lightLoopSettings:
          overrides: 0
          enableDeferredTileAndCluster: 0
          enableComputeLightEvaluation: 0
          enableComputeLightVariants: 0
          enableComputeMaterialVariants: 0
          enableFptlForForwardOpaque: 0
          enableBigTilePrepass: 0
          isFptlEnabled: 0
    roughReflections: 1
    distanceBasedRoughness: 0
  m_ProbeSettingsOverride:
    probe: 0
    camera:
      camera: 0
  m_ProxyVolume: {fileID: 0}
  m_BakedTexture: {fileID: 8900000, guid: 7e3f1677bc1aead4fb8791998078dcec, type: 3}
  m_CustomTexture: {fileID: 0}
  m_BakedRenderData:
    m_WorldToCameraRHS:
      e00: 0
      e01: 0
      e02: 0
      e03: 0
      e10: 0
      e11: 0
      e12: 0
      e13: 0
      e20: 0
      e21: 0
      e22: 0
      e23: 0
      e30: 0
      e31: 0
      e32: 0
      e33: 0
    m_ProjectionMatrix:
      e00: 0
      e01: 0
      e02: 0
      e03: 0
      e10: 0
      e11: 0
      e12: 0
      e13: 0
      e20: 0
      e21: 0
      e22: 0
      e23: 0
      e30: 0
      e31: 0
      e32: 0
      e33: 0
    m_CapturePosition: {x: 0, y: 0, z: 0}
    m_CaptureRotation: {x: 0, y: 0, z: 0, w: 0}
    m_FieldOfView: 0
    m_Aspect: 0
  m_CustomRenderData:
    m_WorldToCameraRHS:
      e00: 0
      e01: 0
      e02: 0
      e03: 0
      e10: 0
      e11: 0
      e12: 0
      e13: 0
      e20: 0
      e21: 0
      e22: 0
      e23: 0
      e30: 0
      e31: 0
      e32: 0
      e33: 0
    m_ProjectionMatrix:
      e00: 0
      e01: 0
      e02: 0
      e03: 0
      e10: 0
      e11: 0
      e12: 0
      e13: 0
      e20: 0
      e21: 0
      e22: 0
      e23: 0
      e30: 0
      e31: 0
      e32: 0
      e33: 0
    m_CapturePosition: {x: 0, y: 0, z: 0}
    m_CaptureRotation: {x: 0, y: 0, z: 0, w: 0}
    m_FieldOfView: 0
    m_Aspect: 0
  m_SHForNormalization:
    sh[ 0]: 0
    sh[ 1]: 0
    sh[ 2]: 0
    sh[ 3]: 0
    sh[ 4]: 0
    sh[ 5]: 0
    sh[ 6]: 0
    sh[ 7]: 0
    sh[ 8]: 0
    sh[ 9]: 0
    sh[10]: 0
    sh[11]: 0
    sh[12]: 0
    sh[13]: 0
    sh[14]: 0
    sh[15]: 0
    sh[16]: 0
    sh[17]: 0
    sh[18]: 0
    sh[19]: 0
    sh[20]: 0
    sh[21]: 0
    sh[22]: 0
    sh[23]: 0
    sh[24]: 0
    sh[25]: 0
    sh[26]: 0
  m_HasValidSHForNormalization: 0
  m_HDProbeVersion: 3
  m_ObsoleteInfiniteProjection: 1
  m_ObsoleteInfluenceVolume:
    m_Shape: 0
    m_BoxSize: {x: 8.880261, y: 3.6585498, z: 4.8670416}
    m_BoxBlendDistancePositive: {x: 1, y: 1, z: 1}
    m_BoxBlendDistanceNegative: {x: 1, y: 1, z: 1}
    m_BoxBlendNormalDistancePositive: {x: 0, y: 0, z: 0}
    m_BoxBlendNormalDistanceNegative: {x: 0, y: 0, z: 0}
    m_BoxSideFadePositive: {x: 1, y: 1, z: 1}
    m_BoxSideFadeNegative: {x: 1, y: 1, z: 1}
    m_SphereRadius: 3
    m_SphereBlendDistance: 0
    m_SphereBlendNormalDistance: 0
    m_EditorAdvancedModeBlendDistancePositive: {x: 0, y: 0, z: 0}
    m_EditorAdvancedModeBlendDistanceNegative: {x: 0, y: 0, z: 0}
    m_EditorSimplifiedModeBlendDistance: 0
    m_EditorAdvancedModeBlendNormalDistancePositive: {x: 0, y: 0, z: 0}
    m_EditorAdvancedModeBlendNormalDistanceNegative: {x: 0, y: 0, z: 0}
    m_EditorSimplifiedModeBlendNormalDistance: 0
    m_EditorAdvancedModeEnabled: 0
    m_EditorAdvancedModeFaceFadePositive: {x: 1, y: 1, z: 1}
    m_EditorAdvancedModeFaceFadeNegative: {x: 1, y: 1, z: 1}
    m_Version: 1
    m_ObsoleteSphereBaseOffset: {x: 0, y: 0, z: 0}
    m_ObsoleteOffset: {x: -0.11674833, y: 0.1915052, z: -0.35990858}
  m_ObsoleteFrameSettings:
    overrides: 0
    enableShadow: 0
    enableContactShadows: 0
    enableShadowMask: 0
    enableSSR: 0
    enableSSAO: 0
    enableSubsurfaceScattering: 0
    enableTransmission: 0
    enableAtmosphericScattering: 0
    enableVolumetrics: 0
    enableReprojectionForVolumetrics: 0
    enableLightLayers: 0
    enableExposureControl: 1
    diffuseGlobalDimmer: 0
    specularGlobalDimmer: 0
    shaderLitMode: 0
    enableDepthPrepassWithDeferredRendering: 0
    enableTransparentPrepass: 0
    enableMotionVectors: 0
    enableObjectMotionVectors: 0
    enableDecals: 0
    enableRoughRefraction: 0
    enableTransparentPostpass: 0
    enableDistortion: 0
    enablePostprocess: 0
    enableOpaqueObjects: 0
    enableTransparentObjects: 0
    enableRealtimePlanarReflection: 0
    enableMSAA: 0
    enableAsyncCompute: 0
    runLightListAsync: 0
    runSSRAsync: 0
    runSSAOAsync: 0
    runContactShadowsAsync: 0
    runVolumeVoxelizationAsync: 0
    lightLoopSettings:
      overrides: 0
      enableDeferredTileAndCluster: 0
      enableComputeLightEvaluation: 0
      enableComputeLightVariants: 0
      enableComputeMaterialVariants: 0
      enableFptlForForwardOpaque: 0
      enableBigTilePrepass: 0
      isFptlEnabled: 0
  m_ObsoleteMultiplier: 1
  m_ObsoleteWeight: 1
  m_ObsoleteMode: 0
  m_ObsoleteLightLayers: 1
  m_ObsoleteCaptureSettings:
    overrides: 0
    clearColorMode: 0
    backgroundColorHDR: {r: 0.023529412, g: 0.07058824, b: 0.1882353, a: 0}
    clearDepth: 1
    cullingMask:
      serializedVersion: 2
      m_Bits: 4294967295
    useOcclusionCulling: 1
    volumeLayerMask:
      serializedVersion: 2
      m_Bits: 1
    volumeAnchorOverride: {fileID: 0}
    projection: 0
    nearClipPlane: 0.3
    farClipPlane: 1000
    fieldOfView: 90
    orthographicSize: 5
    renderingPath: 0
    shadowDistance: 100
  m_ReflectionProbeVersion: 9
  m_ObsoleteInfluenceShape: 0
  m_ObsoleteInfluenceSphereRadius: 3
  m_ObsoleteBlendDistancePositive: {x: 1, y: 1, z: 1}
  m_ObsoleteBlendDistanceNegative: {x: 1, y: 1, z: 1}
  m_ObsoleteBlendNormalDistancePositive: {x: 0, y: 0, z: 0}
  m_ObsoleteBlendNormalDistanceNegative: {x: 0, y: 0, z: 0}
  m_ObsoleteBoxSideFadePositive: {x: 1, y: 1, z: 1}
  m_ObsoleteBoxSideFadeNegative: {x: 1, y: 1, z: 1}
--- !u!1001 &1979352518
PrefabInstance:
  m_ObjectHideFlags: 0
  serializedVersion: 2
  m_Modification:
    m_TransformParent: {fileID: 0}
    m_Modifications:
    - target: {fileID: 1663187150, guid: 2f7f3dde7ae722a4aafffe20691ad702, type: 3}
      propertyPath: starterAssetsInputs
      value: 
      objectReference: {fileID: 1762682259}
    - target: {fileID: 597308369130767402, guid: 2f7f3dde7ae722a4aafffe20691ad702, type: 3}
      propertyPath: m_Pivot.x
      value: 0
      objectReference: {fileID: 0}
    - target: {fileID: 597308369130767402, guid: 2f7f3dde7ae722a4aafffe20691ad702, type: 3}
      propertyPath: m_Pivot.y
      value: 0
      objectReference: {fileID: 0}
    - target: {fileID: 597308369130767402, guid: 2f7f3dde7ae722a4aafffe20691ad702, type: 3}
      propertyPath: m_RootOrder
      value: 5
      objectReference: {fileID: 0}
    - target: {fileID: 597308369130767402, guid: 2f7f3dde7ae722a4aafffe20691ad702, type: 3}
      propertyPath: m_AnchorMax.x
      value: 0
      objectReference: {fileID: 0}
    - target: {fileID: 597308369130767402, guid: 2f7f3dde7ae722a4aafffe20691ad702, type: 3}
      propertyPath: m_AnchorMax.y
      value: 0
      objectReference: {fileID: 0}
    - target: {fileID: 597308369130767402, guid: 2f7f3dde7ae722a4aafffe20691ad702, type: 3}
      propertyPath: m_AnchorMin.x
      value: 0
      objectReference: {fileID: 0}
    - target: {fileID: 597308369130767402, guid: 2f7f3dde7ae722a4aafffe20691ad702, type: 3}
      propertyPath: m_AnchorMin.y
      value: 0
      objectReference: {fileID: 0}
    - target: {fileID: 597308369130767402, guid: 2f7f3dde7ae722a4aafffe20691ad702, type: 3}
      propertyPath: m_SizeDelta.x
      value: 0
      objectReference: {fileID: 0}
    - target: {fileID: 597308369130767402, guid: 2f7f3dde7ae722a4aafffe20691ad702, type: 3}
      propertyPath: m_SizeDelta.y
      value: 0
      objectReference: {fileID: 0}
    - target: {fileID: 597308369130767402, guid: 2f7f3dde7ae722a4aafffe20691ad702, type: 3}
      propertyPath: m_LocalPosition.x
      value: 0
      objectReference: {fileID: 0}
    - target: {fileID: 597308369130767402, guid: 2f7f3dde7ae722a4aafffe20691ad702, type: 3}
      propertyPath: m_LocalPosition.y
      value: 0
      objectReference: {fileID: 0}
    - target: {fileID: 597308369130767402, guid: 2f7f3dde7ae722a4aafffe20691ad702, type: 3}
      propertyPath: m_LocalPosition.z
      value: 0
      objectReference: {fileID: 0}
    - target: {fileID: 597308369130767402, guid: 2f7f3dde7ae722a4aafffe20691ad702, type: 3}
      propertyPath: m_LocalRotation.w
      value: 1
      objectReference: {fileID: 0}
    - target: {fileID: 597308369130767402, guid: 2f7f3dde7ae722a4aafffe20691ad702, type: 3}
      propertyPath: m_LocalRotation.x
      value: 0
      objectReference: {fileID: 0}
    - target: {fileID: 597308369130767402, guid: 2f7f3dde7ae722a4aafffe20691ad702, type: 3}
      propertyPath: m_LocalRotation.y
      value: 0
      objectReference: {fileID: 0}
    - target: {fileID: 597308369130767402, guid: 2f7f3dde7ae722a4aafffe20691ad702, type: 3}
      propertyPath: m_LocalRotation.z
      value: 0
      objectReference: {fileID: 0}
    - target: {fileID: 597308369130767402, guid: 2f7f3dde7ae722a4aafffe20691ad702, type: 3}
      propertyPath: m_AnchoredPosition.x
      value: 0
      objectReference: {fileID: 0}
    - target: {fileID: 597308369130767402, guid: 2f7f3dde7ae722a4aafffe20691ad702, type: 3}
      propertyPath: m_AnchoredPosition.y
      value: 0
      objectReference: {fileID: 0}
    - target: {fileID: 597308369130767402, guid: 2f7f3dde7ae722a4aafffe20691ad702, type: 3}
      propertyPath: m_LocalEulerAnglesHint.x
      value: 0
      objectReference: {fileID: 0}
    - target: {fileID: 597308369130767402, guid: 2f7f3dde7ae722a4aafffe20691ad702, type: 3}
      propertyPath: m_LocalEulerAnglesHint.y
      value: 0
      objectReference: {fileID: 0}
    - target: {fileID: 597308369130767402, guid: 2f7f3dde7ae722a4aafffe20691ad702, type: 3}
      propertyPath: m_LocalEulerAnglesHint.z
      value: 0
      objectReference: {fileID: 0}
    - target: {fileID: 6751388636123340836, guid: 2f7f3dde7ae722a4aafffe20691ad702, type: 3}
      propertyPath: m_Name
      value: UI_Canvas_StarterAssetsInputs_Joysticks
      objectReference: {fileID: 0}
    - target: {fileID: 6751388636123340836, guid: 2f7f3dde7ae722a4aafffe20691ad702, type: 3}
      propertyPath: m_IsActive
      value: 0
      objectReference: {fileID: 0}
    - target: {fileID: 8890774966862588244, guid: 2f7f3dde7ae722a4aafffe20691ad702, type: 3}
      propertyPath: playerInput
      value: 
      objectReference: {fileID: 1762682260}
    m_RemovedComponents: []
  m_SourcePrefab: {fileID: 100100000, guid: 2f7f3dde7ae722a4aafffe20691ad702, type: 3}
--- !u!1 &2114283753834967212
GameObject:
  m_ObjectHideFlags: 0
  m_CorrespondingSourceObject: {fileID: 0}
  m_PrefabInstance: {fileID: 0}
  m_PrefabAsset: {fileID: 0}
  serializedVersion: 6
  m_Component:
  - component: {fileID: 2114283753834967213}
  m_Layer: 0
  m_Name: Lighting
  m_TagString: Untagged
  m_Icon: {fileID: 0}
  m_NavMeshLayer: 0
  m_StaticEditorFlags: 0
  m_IsActive: 1
--- !u!4 &2114283753834967213
Transform:
  m_ObjectHideFlags: 0
  m_CorrespondingSourceObject: {fileID: 0}
  m_PrefabInstance: {fileID: 0}
  m_PrefabAsset: {fileID: 0}
  m_GameObject: {fileID: 2114283753834967212}
  m_LocalRotation: {x: 0, y: 0, z: 0, w: 1}
  m_LocalPosition: {x: 0, y: 0, z: 0}
  m_LocalScale: {x: 1, y: 1, z: 1}
  m_ConstrainProportionsScale: 0
  m_Children:
  - {fileID: 2114283754330233426}
  - {fileID: 1028513133}
  - {fileID: 1764214108}
  - {fileID: 542508512}
  - {fileID: 874605736}
  m_Father: {fileID: 0}
  m_RootOrder: 0
  m_LocalEulerAnglesHint: {x: 0, y: 0, z: 0}
--- !u!1 &2114283754330233424
GameObject:
  m_ObjectHideFlags: 0
  m_CorrespondingSourceObject: {fileID: 0}
  m_PrefabInstance: {fileID: 0}
  m_PrefabAsset: {fileID: 0}
  serializedVersion: 6
  m_Component:
  - component: {fileID: 2114283754330233426}
  - component: {fileID: 2114283754330233425}
  - component: {fileID: 2114283754330233427}
  m_Layer: 0
  m_Name: Directional Light
  m_TagString: Untagged
  m_Icon: {fileID: 0}
  m_NavMeshLayer: 0
  m_StaticEditorFlags: 0
  m_IsActive: 1
--- !u!108 &2114283754330233425
Light:
  m_ObjectHideFlags: 0
  m_CorrespondingSourceObject: {fileID: 0}
  m_PrefabInstance: {fileID: 0}
  m_PrefabAsset: {fileID: 0}
  m_GameObject: {fileID: 2114283754330233424}
  m_Enabled: 1
  serializedVersion: 10
  m_Type: 1
  m_Shape: 0
  m_Color: {r: 0.972549, g: 0.9607843, b: 0.8784314, a: 1}
  m_Intensity: 100000
  m_Range: 10
  m_SpotAngle: 30
  m_InnerSpotAngle: 21.80208
  m_CookieSize: 10
  m_Shadows:
    m_Type: 2
    m_Resolution: 2
    m_CustomResolution: -1
    m_Strength: 1
    m_Bias: 0.125
    m_NormalBias: 0
    m_NearPlane: 0.2
    m_CullingMatrixOverride:
      e00: 1
      e01: 0
      e02: 0
      e03: 0
      e10: 0
      e11: 1
      e12: 0
      e13: 0
      e20: 0
      e21: 0
      e22: 1
      e23: 0
      e30: 0
      e31: 0
      e32: 0
      e33: 1
    m_UseCullingMatrixOverride: 0
  m_Cookie: {fileID: 0}
  m_DrawHalo: 0
  m_Flare: {fileID: 0}
  m_RenderMode: 0
  m_CullingMask:
    serializedVersion: 2
    m_Bits: 4294967295
  m_RenderingLayerMask: 1
  m_Lightmapping: 1
  m_LightShadowCasterMode: 2
  m_AreaSize: {x: 1, y: 1}
  m_BounceIntensity: 1
  m_ColorTemperature: 6570
  m_UseColorTemperature: 1
  m_BoundingSphereOverride: {x: 1.02e-43, y: 0, z: 0, w: -101.6308}
  m_UseBoundingSphereOverride: 0
  m_UseViewFrustumForShadowCasterCull: 1
  m_ShadowRadius: 0
  m_ShadowAngle: 0
--- !u!4 &2114283754330233426
Transform:
  m_ObjectHideFlags: 0
  m_CorrespondingSourceObject: {fileID: 0}
  m_PrefabInstance: {fileID: 0}
  m_PrefabAsset: {fileID: 0}
  m_GameObject: {fileID: 2114283754330233424}
  m_LocalRotation: {x: 0.40821788, y: -0.23456968, z: 0.10938163, w: 0.8754261}
  m_LocalPosition: {x: 39.455, y: 0, z: 7.815}
  m_LocalScale: {x: 1, y: 1, z: 1}
  m_ConstrainProportionsScale: 0
  m_Children: []
  m_Father: {fileID: 2114283753834967213}
  m_RootOrder: 0
  m_LocalEulerAnglesHint: {x: 50, y: -30, z: 0}
--- !u!114 &2114283754330233427
MonoBehaviour:
  m_ObjectHideFlags: 0
  m_CorrespondingSourceObject: {fileID: 0}
  m_PrefabInstance: {fileID: 0}
  m_PrefabAsset: {fileID: 0}
  m_GameObject: {fileID: 2114283754330233424}
  m_Enabled: 1
  m_EditorHideFlags: 0
  m_Script: {fileID: 11500000, guid: 7a68c43fe1f2a47cfa234b5eeaa98012, type: 3}
  m_Name: 
  m_EditorClassIdentifier: 
  m_Intensity: 100000
  m_EnableSpotReflector: 1
  m_LuxAtDistance: 1
  m_InnerSpotPercent: 0
  m_SpotIESCutoffPercent: 100
  m_LightDimmer: 1
  m_VolumetricDimmer: 1
  m_LightUnit: 2
  m_FadeDistance: 10000
  m_VolumetricFadeDistance: 10000
  m_AffectDiffuse: 1
  m_AffectSpecular: 1
  m_NonLightmappedOnly: 0
  m_ShapeWidth: 0.5
  m_ShapeHeight: 0.5
  m_AspectRatio: 1
  m_ShapeRadius: 0.025
  m_SoftnessScale: 1
  m_UseCustomSpotLightShadowCone: 0
  m_CustomSpotLightShadowCone: 30
  m_MaxSmoothness: 0.99
  m_ApplyRangeAttenuation: 1
  m_DisplayAreaLightEmissiveMesh: 0
  m_AreaLightCookie: {fileID: 0}
  m_IESPoint: {fileID: 0}
  m_IESSpot: {fileID: 0}
  m_IncludeForRayTracing: 1
  m_AreaLightShadowCone: 120
  m_UseScreenSpaceShadows: 0
  m_InteractsWithSky: 1
  m_AngularDiameter: 0.5
  m_FlareSize: 2
  m_FlareTint: {r: 1, g: 1, b: 1, a: 1}
  m_FlareFalloff: 4
  m_SurfaceTexture: {fileID: 0}
  m_SurfaceTint: {r: 1, g: 1, b: 1, a: 1}
  m_Distance: 1.5e+11
  m_UseRayTracedShadows: 0
  m_NumRayTracingSamples: 4
  m_FilterTracedShadow: 1
  m_FilterSizeTraced: 16
  m_SunLightConeAngle: 0.5
  m_LightShadowRadius: 0.5
  m_SemiTransparentShadow: 0
  m_ColorShadow: 1
  m_DistanceBasedFiltering: 0
  m_EvsmExponent: 15
  m_EvsmLightLeakBias: 0
  m_EvsmVarianceBias: 0.00001
  m_EvsmBlurPasses: 0
  m_LightlayersMask: 1
  m_LinkShadowLayers: 1
  m_ShadowNearPlane: 0.1
  m_BlockerSampleCount: 24
  m_FilterSampleCount: 16
  m_MinFilterSize: 0.1
  m_KernelSize: 5
  m_LightAngle: 1
  m_MaxDepthBias: 0.001
  m_ShadowResolution:
    m_Override: 512
    m_UseOverride: 1
    m_Level: 0
  m_ShadowDimmer: 1
  m_VolumetricShadowDimmer: 1
  m_ShadowFadeDistance: 10000
  m_UseContactShadow:
    m_Override: 0
    m_UseOverride: 1
    m_Level: 0
  m_RayTracedContactShadow: 0
  m_ShadowTint: {r: 0, g: 0, b: 0, a: 1}
  m_PenumbraTint: 0
  m_NormalBias: 0.75
  m_SlopeBias: 0.5
  m_ShadowUpdateMode: 0
  m_AlwaysDrawDynamicShadows: 0
  m_UpdateShadowOnLightMovement: 0
  m_CachedShadowTranslationThreshold: 0.01
  m_CachedShadowAngularThreshold: 0.5
  m_BarnDoorAngle: 90
  m_BarnDoorLength: 0.05
  m_preserveCachedShadow: 0
  m_OnDemandShadowRenderOnPlacement: 1
  m_ShadowCascadeRatios:
  - 0.05
  - 0.2
  - 0.3
  m_ShadowCascadeBorders:
  - 0.2
  - 0.2
  - 0.2
  - 0.2
  m_ShadowAlgorithm: 0
  m_ShadowVariant: 0
  m_ShadowPrecision: 0
  useOldInspector: 0
  useVolumetric: 1
  featuresFoldout: 1
  m_AreaLightEmissiveMeshShadowCastingMode: 0
  m_AreaLightEmissiveMeshMotionVectorGenerationMode: 0
  m_AreaLightEmissiveMeshLayer: -1
  m_Version: 11
  m_ObsoleteShadowResolutionTier: 1
  m_ObsoleteUseShadowQualitySettings: 0
  m_ObsoleteCustomShadowResolution: 512
  m_ObsoleteContactShadows: 0
  m_PointlightHDType: 0
  m_SpotLightShape: 0
  m_AreaLightShape: 0
--- !u!1001 &8345070700268369567
PrefabInstance:
  m_ObjectHideFlags: 0
  serializedVersion: 2
  m_Modification:
    m_TransformParent: {fileID: 0}
    m_Modifications:
    - target: {fileID: 1678179932331761816, guid: 09aade0ecefd01e4b8f7661acf64f5c2, type: 3}
      propertyPath: m_Materials.Array.data[0]
      value: 
      objectReference: {fileID: 2100000, guid: 7ab977a21c92388468ee65ad1c0e5a78, type: 2}
    - target: {fileID: 2055894051710730007, guid: 09aade0ecefd01e4b8f7661acf64f5c2, type: 3}
      propertyPath: m_Materials.Array.data[0]
      value: 
      objectReference: {fileID: 2100000, guid: 7ab977a21c92388468ee65ad1c0e5a78, type: 2}
    - target: {fileID: 2188624860443206089, guid: 09aade0ecefd01e4b8f7661acf64f5c2, type: 3}
      propertyPath: m_Materials.Array.data[0]
      value: 
      objectReference: {fileID: 2100000, guid: 7ab977a21c92388468ee65ad1c0e5a78, type: 2}
    - target: {fileID: 2267305922763786408, guid: 09aade0ecefd01e4b8f7661acf64f5c2, type: 3}
      propertyPath: m_Materials.Array.data[0]
      value: 
      objectReference: {fileID: 2100000, guid: 7ab977a21c92388468ee65ad1c0e5a78, type: 2}
    - target: {fileID: 2742374090662089873, guid: 09aade0ecefd01e4b8f7661acf64f5c2, type: 3}
      propertyPath: m_Name
      value: Box_350x250x200_Prefab
      objectReference: {fileID: 0}
    - target: {fileID: 2851502387910328280, guid: 09aade0ecefd01e4b8f7661acf64f5c2, type: 3}
      propertyPath: m_Materials.Array.data[0]
      value: 
      objectReference: {fileID: 2100000, guid: 7ab977a21c92388468ee65ad1c0e5a78, type: 2}
    - target: {fileID: 3362877509795758829, guid: 09aade0ecefd01e4b8f7661acf64f5c2, type: 3}
      propertyPath: m_Materials.Array.data[0]
      value: 
      objectReference: {fileID: 2100000, guid: 7ab977a21c92388468ee65ad1c0e5a78, type: 2}
    - target: {fileID: 3814548966972071594, guid: 09aade0ecefd01e4b8f7661acf64f5c2, type: 3}
      propertyPath: m_Materials.Array.data[0]
      value: 
      objectReference: {fileID: 2100000, guid: 7ab977a21c92388468ee65ad1c0e5a78, type: 2}
    - target: {fileID: 3983598328739993525, guid: 09aade0ecefd01e4b8f7661acf64f5c2, type: 3}
      propertyPath: m_Materials.Array.data[0]
      value: 
      objectReference: {fileID: 2100000, guid: 7ab977a21c92388468ee65ad1c0e5a78, type: 2}
    - target: {fileID: 4024457254690178231, guid: 09aade0ecefd01e4b8f7661acf64f5c2, type: 3}
      propertyPath: m_LocalRotation.w
      value: 0.6637226
      objectReference: {fileID: 0}
    - target: {fileID: 4024457254690178231, guid: 09aade0ecefd01e4b8f7661acf64f5c2, type: 3}
      propertyPath: m_LocalRotation.x
      value: -0.6637226
      objectReference: {fileID: 0}
    - target: {fileID: 4024457254690178231, guid: 09aade0ecefd01e4b8f7661acf64f5c2, type: 3}
      propertyPath: m_LocalRotation.y
      value: -0.2438697
      objectReference: {fileID: 0}
    - target: {fileID: 4024457254690178231, guid: 09aade0ecefd01e4b8f7661acf64f5c2, type: 3}
      propertyPath: m_LocalRotation.z
      value: -0.2438697
      objectReference: {fileID: 0}
    - target: {fileID: 4024457254690178231, guid: 09aade0ecefd01e4b8f7661acf64f5c2, type: 3}
      propertyPath: m_LocalEulerAnglesHint.x
      value: -90
      objectReference: {fileID: 0}
    - target: {fileID: 4024457254690178231, guid: 09aade0ecefd01e4b8f7661acf64f5c2, type: 3}
      propertyPath: m_LocalEulerAnglesHint.z
      value: -40.349
      objectReference: {fileID: 0}
    - target: {fileID: 4341615185304014817, guid: 09aade0ecefd01e4b8f7661acf64f5c2, type: 3}
      propertyPath: m_Materials.Array.data[0]
      value: 
      objectReference: {fileID: 2100000, guid: 7ab977a21c92388468ee65ad1c0e5a78, type: 2}
    - target: {fileID: 4364672074426162701, guid: 09aade0ecefd01e4b8f7661acf64f5c2, type: 3}
      propertyPath: m_Name
      value: Box_350x250x200_Prefab
      objectReference: {fileID: 0}
    - target: {fileID: 4670052200047188738, guid: 09aade0ecefd01e4b8f7661acf64f5c2, type: 3}
      propertyPath: m_Materials.Array.data[0]
      value: 
      objectReference: {fileID: 2100000, guid: 7ab977a21c92388468ee65ad1c0e5a78, type: 2}
    - target: {fileID: 5043663941078610840, guid: 09aade0ecefd01e4b8f7661acf64f5c2, type: 3}
      propertyPath: m_Name
      value: Box_350x250x300_Prefab
      objectReference: {fileID: 0}
    - target: {fileID: 6056394991271758435, guid: 09aade0ecefd01e4b8f7661acf64f5c2, type: 3}
      propertyPath: m_Materials.Array.data[0]
      value: 
      objectReference: {fileID: 2100000, guid: 7ab977a21c92388468ee65ad1c0e5a78, type: 2}
    - target: {fileID: 6448643974395219577, guid: 09aade0ecefd01e4b8f7661acf64f5c2, type: 3}
      propertyPath: m_Materials.Array.data[0]
      value: 
      objectReference: {fileID: 2100000, guid: 7ab977a21c92388468ee65ad1c0e5a78, type: 2}
    - target: {fileID: 6645204521410384571, guid: 09aade0ecefd01e4b8f7661acf64f5c2, type: 3}
      propertyPath: m_Materials.Array.data[0]
      value: 
      objectReference: {fileID: 2100000, guid: 7ab977a21c92388468ee65ad1c0e5a78, type: 2}
    - target: {fileID: 6658370631066563872, guid: 09aade0ecefd01e4b8f7661acf64f5c2, type: 3}
      propertyPath: m_Materials.Array.data[0]
      value: 
      objectReference: {fileID: 2100000, guid: 7ab977a21c92388468ee65ad1c0e5a78, type: 2}
    - target: {fileID: 7868691500460860468, guid: 09aade0ecefd01e4b8f7661acf64f5c2, type: 3}
      propertyPath: m_Materials.Array.data[0]
      value: 
      objectReference: {fileID: 2100000, guid: 7ab977a21c92388468ee65ad1c0e5a78, type: 2}
    - target: {fileID: 8268551067277165611, guid: 09aade0ecefd01e4b8f7661acf64f5c2, type: 3}
      propertyPath: m_Materials.Array.data[0]
      value: 
      objectReference: {fileID: 2100000, guid: 7ab977a21c92388468ee65ad1c0e5a78, type: 2}
    - target: {fileID: 8345070699079395522, guid: 09aade0ecefd01e4b8f7661acf64f5c2, type: 3}
      propertyPath: m_RootOrder
      value: 1
      objectReference: {fileID: 0}
    - target: {fileID: 8345070699079395522, guid: 09aade0ecefd01e4b8f7661acf64f5c2, type: 3}
      propertyPath: m_LocalPosition.x
      value: 0
      objectReference: {fileID: 0}
    - target: {fileID: 8345070699079395522, guid: 09aade0ecefd01e4b8f7661acf64f5c2, type: 3}
      propertyPath: m_LocalPosition.y
      value: 0
      objectReference: {fileID: 0}
    - target: {fileID: 8345070699079395522, guid: 09aade0ecefd01e4b8f7661acf64f5c2, type: 3}
      propertyPath: m_LocalPosition.z
      value: 0
      objectReference: {fileID: 0}
    - target: {fileID: 8345070699079395522, guid: 09aade0ecefd01e4b8f7661acf64f5c2, type: 3}
      propertyPath: m_LocalRotation.w
      value: 1
      objectReference: {fileID: 0}
    - target: {fileID: 8345070699079395522, guid: 09aade0ecefd01e4b8f7661acf64f5c2, type: 3}
      propertyPath: m_LocalRotation.x
      value: 0
      objectReference: {fileID: 0}
    - target: {fileID: 8345070699079395522, guid: 09aade0ecefd01e4b8f7661acf64f5c2, type: 3}
      propertyPath: m_LocalRotation.y
      value: 0
      objectReference: {fileID: 0}
    - target: {fileID: 8345070699079395522, guid: 09aade0ecefd01e4b8f7661acf64f5c2, type: 3}
      propertyPath: m_LocalRotation.z
      value: 0
      objectReference: {fileID: 0}
    - target: {fileID: 8345070699079395522, guid: 09aade0ecefd01e4b8f7661acf64f5c2, type: 3}
      propertyPath: m_LocalEulerAnglesHint.x
      value: 0
      objectReference: {fileID: 0}
    - target: {fileID: 8345070699079395522, guid: 09aade0ecefd01e4b8f7661acf64f5c2, type: 3}
      propertyPath: m_LocalEulerAnglesHint.y
      value: 0
      objectReference: {fileID: 0}
    - target: {fileID: 8345070699079395522, guid: 09aade0ecefd01e4b8f7661acf64f5c2, type: 3}
      propertyPath: m_LocalEulerAnglesHint.z
      value: 0
      objectReference: {fileID: 0}
    - target: {fileID: 8345070699079395523, guid: 09aade0ecefd01e4b8f7661acf64f5c2, type: 3}
      propertyPath: m_Name
      value: Environment
      objectReference: {fileID: 0}
    - target: {fileID: 8680289381081499115, guid: 09aade0ecefd01e4b8f7661acf64f5c2, type: 3}
      propertyPath: m_Materials.Array.data[0]
      value: 
      objectReference: {fileID: 2100000, guid: 7ab977a21c92388468ee65ad1c0e5a78, type: 2}
    m_RemovedComponents: []
  m_SourcePrefab: {fileID: 100100000, guid: 09aade0ecefd01e4b8f7661acf64f5c2, type: 3}
