%YAML 1.1
%TAG !u! tag:unity3d.com,2011:
--- !u!114 &11400000
MonoBehaviour:
  m_ObjectHideFlags: 0
  m_CorrespondingSourceObject: {fileID: 0}
  m_PrefabInstance: {fileID: 0}
  m_PrefabAsset: {fileID: 0}
  m_GameObject: {fileID: 0}
  m_Enabled: 1
  m_EditorHideFlags: 0
  m_Script: {fileID: 11500000, guid: d6cbe6e7df3ba0d4cbfd931300624e2a, type: 3}
  m_Name: Prefab Spawner
  m_EditorClassIdentifier: 
  m_Prefab: {fileID: 4925964727253787649, guid: c90066967df42e443afc2bc8dee3b4ea, type: 3}
